i2c_to_wb_top.vcd
$date
     Jun 28, 2018       14:52:25
$end

$version
 SystemC 2.3.2-Accellera --- Jun 24 2018 09:42:57
$end

$timescale
     1 ns
$end

$scope module SystemC $end
$var wire    1  aaaaa  i2c_data_in       $end
$var wire    1  aaaab  i2c_clk_in       $end
$var wire    1  aaaac  i2c_data_out       $end
$var wire    1  aaaad  i2c_clk_out       $end
$var wire    1  aaaae  i2c_data_oe       $end
$var wire    1  aaaaf  i2c_clk_oe       $end
$var wire   32  aaaag  wb_data_i [31:0]  $end
$var wire   32  aaaah  wb_data_o [31:0]  $end
$var wire    8  aaaai  wb_addr_o [7:0]  $end
$var wire    4  aaaaj  wb_sel_o [3:0]  $end
$var wire    1  aaaak  wb_we_o       $end
$var wire    1  aaaal  wb_cyc_o       $end
$var wire    1  aaaam  wb_stb_o       $end
$var wire    1  aaaan  wb_ack_i       $end
$var wire    1  aaaao  wb_err_i       $end
$var wire    1  aaaap  wb_rty_i       $end
$var wire    1  aaaaq  wb_clk_i       $end
$var wire    1  aaaar  wb_rst_i       $end
$scope module i2c_to_wb_top $end
$var wire    1  aaabq  wb_rst_i       $end
$var wire    1  aaabr  wb_clk_i       $end
$var wire    1  aaabs  wb_rty_i       $end
$var wire    1  aaabt  wb_err_i       $end
$var wire    1  aaabu  wb_ack_i       $end
$var wire    1  aaabv  wb_stb_o       $end
$var wire    1  aaabw  wb_cyc_o       $end
$var wire    1  aaabx  wb_we_o       $end
$var wire    4  aaaby  wb_sel_o [3:0]  $end
$var wire    8  aaabz  wb_addr_o [7:0]  $end
$var wire   32  aaaca  wb_data_o [31:0]  $end
$var wire   32  aaacb  wb_data_i [31:0]  $end
$var wire    1  aaacc  i2c_clk_oe       $end
$var wire    1  aaacd  i2c_data_oe       $end
$var wire    1  aaace  i2c_clk_out       $end
$var wire    1  aaacf  i2c_data_out       $end
$var wire    1  aaacg  i2c_clk_in       $end
$var wire    1  aaach  i2c_data_in       $end
$scope module i_i2c_to_wb_if $end
$var wire    1  aaaaz  i2c_r_w_bit       $end
$var wire    8  aaaba  i2c_offset_r [7:0]  $end
$upscope $end
$scope module topClockGlitchFilter $end
$var wire    1  aaabg  fall       $end
$var wire    1  aaabh  rise       $end
$var wire    1  aaabi  out       $end
$var wire    1  aaabj  in       $end
$var wire    1  aaabk  clk       $end
$upscope $end
$scope module topConfig $end
$var wire    1  aaabb  wb_rst_i       $end
$var wire    1  aaabc  wb_clk_i       $end
$var wire    1  aaabd  i2c_ack_out       $end
$var wire    1  aaabe  tip_addr_ack       $end
$var wire    8  aaabf  i2c_byte_in [7:0]  $end
$upscope $end
$scope module topDataGlitchFilter $end
$var wire    1  aaabl  fall       $end
$var wire    1  aaabm  rise       $end
$var wire    1  aaabn  out       $end
$var wire    1  aaabo  in       $end
$var wire    1  aaabp  clk       $end
$upscope $end
$scope module topFSM $end
$var wire    1  aaaas  start_detected       $end
$var wire    1  aaaat  stop_detected       $end
$var wire    1  aaaau  tip_ack       $end
$var wire    1  aaaav  xmt_byte_done       $end
$var wire   32  aaaaw  state [31:0]  $end
$var wire   32  aaaax  next_state [31:0]  $end
$var wire    4  aaaay  bit_count [3:0]  $end
$upscope $end
$upscope $end
$upscope $end
$enddefinitions  $end

$comment
All initial values are dumped below at time 0 sec = 0 timescale units.
$end

$dumpvars
1aaaaa
1aaaab
0aaaac
1aaaad
0aaaae
0aaaaf
b1 aaaag
b0 aaaah
b0 aaaai
b1 aaaaj
0aaaak
0aaaal
0aaaam
0aaaan
0aaaao
0aaaap
1aaaaq
1aaaar
0aaaas
0aaaat
0aaaau
0aaaav
b0 aaaaw
b0 aaaax
b100 aaaay
0aaaaz
b0 aaaba
1aaabb
1aaabc
0aaabd
0aaabe
b0 aaabf
0aaabg
0aaabh
0aaabi
1aaabj
1aaabk
0aaabl
0aaabm
0aaabn
1aaabo
1aaabp
1aaabq
1aaabr
0aaabs
0aaabt
0aaabu
0aaabv
0aaabw
0aaabx
b1 aaaby
b0 aaabz
b0 aaaca
b1 aaacb
0aaacc
0aaacd
1aaace
0aaacf
1aaacg
1aaach
$end

#1
0aaaaq
0aaabc
0aaabk
0aaabp
0aaabr

#2
1aaaaq
1aaabc
1aaabk
1aaabp
1aaabr

#3
0aaaaq
0aaabc
0aaabk
0aaabp
0aaabr

#4
1aaaaq
1aaabc
1aaabk
1aaabp
1aaabr

#5
0aaaaq
0aaabc
0aaabk
0aaabp
0aaabr

#6
1aaaaq
1aaabc
1aaabh
1aaabk
1aaabm
1aaabp
1aaabr

#7
0aaaaq
0aaabc
0aaabk
0aaabp
0aaabr

#8
1aaaaq
1aaabc
0aaabh
1aaabi
1aaabk
0aaabm
1aaabn
1aaabp
1aaabr

#9
0aaaaq
0aaabc
0aaabk
0aaabp
0aaabr

#10
0aaaaa
0aaaab
1aaaaq
0aaaar
0aaabb
1aaabc
0aaabj
1aaabk
0aaabo
1aaabp
0aaabq
1aaabr
0aaacg
0aaach

#11
0aaaaq
0aaabc
0aaabk
0aaabp
0aaabr

#12
1aaaaq
1aaabc
1aaabk
1aaabp
1aaabr

#13
0aaaaq
0aaabc
0aaabk
0aaabp
0aaabr

#14
1aaaaq
1aaabc
1aaabk
1aaabp
1aaabr

#15
0aaaaq
0aaabc
0aaabk
0aaabp
0aaabr

#16
1aaaaq
1aaaas
1aaabc
1aaabg
1aaabk
1aaabl
1aaabp
1aaabr

#17
0aaaaq
0aaabc
0aaabk
0aaabp
0aaabr

#18
1aaaaq
0aaaas
1aaabc
0aaabg
0aaabi
1aaabk
0aaabl
0aaabn
1aaabp
1aaabr

#19
0aaaaq
0aaabc
0aaabk
0aaabp
0aaabr

#20
1aaaaa
1aaaab
1aaaaq
1aaabc
1aaabj
1aaabk
1aaabo
1aaabp
1aaabr
1aaacg
1aaach

#21
0aaaaq
0aaabc
0aaabk
0aaabp
0aaabr

#22
1aaaaq
1aaabc
1aaabk
1aaabp
1aaabr

#23
0aaaaq
0aaabc
0aaabk
0aaabp
0aaabr

#24
1aaaaq
1aaabc
1aaabk
1aaabp
1aaabr

#25
0aaaaq
0aaabc
0aaabk
0aaabp
0aaabr

#26
1aaaaq
1aaabc
1aaabh
1aaabk
1aaabm
1aaabp
1aaabr

#27
0aaaaq
0aaabc
0aaabk
0aaabp
0aaabr

#28
1aaaaq
1aaabc
0aaabh
1aaabi
1aaabk
0aaabm
1aaabn
1aaabp
1aaabr

#29
0aaaaq
0aaabc
0aaabk
0aaabp
0aaabr

#30
0aaaaa
0aaaab
1aaaaq
1aaabc
0aaabj
1aaabk
0aaabo
1aaabp
1aaabr
0aaacg
0aaach

#31
0aaaaq
0aaabc
0aaabk
0aaabp
0aaabr

#32
1aaaaq
1aaabc
1aaabk
1aaabp
1aaabr

#33
0aaaaq
0aaabc
0aaabk
0aaabp
0aaabr

#34
1aaaaq
1aaabc
1aaabk
1aaabp
1aaabr

#35
0aaaaq
0aaabc
0aaabk
0aaabp
0aaabr

#36
1aaaaq
1aaaas
1aaabc
1aaabg
1aaabk
1aaabl
1aaabp
1aaabr

#37
0aaaaq
0aaabc
0aaabk
0aaabp
0aaabr

#38
1aaaaq
0aaaas
1aaabc
0aaabg
0aaabi
1aaabk
0aaabl
0aaabn
1aaabp
1aaabr

#39
0aaaaq
0aaabc
0aaabk
0aaabp
0aaabr

#40
1aaaaa
1aaaab
1aaaaq
1aaabc
1aaabj
1aaabk
1aaabo
1aaabp
1aaabr
1aaacg
1aaach

#41
0aaaaq
0aaabc
0aaabk
0aaabp
0aaabr

#42
1aaaaq
1aaabc
1aaabk
1aaabp
1aaabr

#43
0aaaaq
0aaabc
0aaabk
0aaabp
0aaabr

#44
1aaaaq
1aaabc
1aaabk
1aaabp
1aaabr

#45
0aaaaq
0aaabc
0aaabk
0aaabp
0aaabr

#46
1aaaaq
1aaabc
1aaabh
1aaabk
1aaabm
1aaabp
1aaabr

#47
0aaaaq
0aaabc
0aaabk
0aaabp
0aaabr

#48
1aaaaq
1aaabc
0aaabh
1aaabi
1aaabk
0aaabm
1aaabn
1aaabp
1aaabr

#49
0aaaaq
0aaabc
0aaabk
0aaabp
0aaabr

#50
0aaaaa
0aaaab
1aaaaq
1aaabc
0aaabj
1aaabk
0aaabo
1aaabp
1aaabr
0aaacg
0aaach

#51
0aaaaq
0aaabc
0aaabk
0aaabp
0aaabr

#52
1aaaaq
1aaabc
1aaabk
1aaabp
1aaabr

#53
0aaaaq
0aaabc
0aaabk
0aaabp
0aaabr

#54
1aaaaq
1aaabc
1aaabk
1aaabp
1aaabr

#55
0aaaaq
0aaabc
0aaabk
0aaabp
0aaabr

#56
1aaaaq
1aaaas
1aaabc
1aaabg
1aaabk
1aaabl
1aaabp
1aaabr

#57
0aaaaq
0aaabc
0aaabk
0aaabp
0aaabr

#58
1aaaaq
0aaaas
1aaabc
0aaabg
0aaabi
1aaabk
0aaabl
0aaabn
1aaabp
1aaabr

#59
0aaaaq
0aaabc
0aaabk
0aaabp
0aaabr

#60
1aaaaa
1aaaab
1aaaaq
1aaabc
1aaabj
1aaabk
1aaabo
1aaabp
1aaabr
1aaacg
1aaach

#61
0aaaaq
0aaabc
0aaabk
0aaabp
0aaabr

#62
1aaaaq
1aaabc
1aaabk
1aaabp
1aaabr

#63
0aaaaq
0aaabc
0aaabk
0aaabp
0aaabr

#64
1aaaaq
1aaabc
1aaabk
1aaabp
1aaabr

#65
0aaaaq
0aaabc
0aaabk
0aaabp
0aaabr

#66
1aaaaq
1aaabc
1aaabh
1aaabk
1aaabm
1aaabp
1aaabr

#67
0aaaaq
0aaabc
0aaabk
0aaabp
0aaabr

#68
1aaaaq
1aaabc
0aaabh
1aaabi
1aaabk
0aaabm
1aaabn
1aaabp
1aaabr

#69
0aaaaq
0aaabc
0aaabk
0aaabp
0aaabr

#70
0aaaaa
0aaaab
1aaaaq
1aaabc
0aaabj
1aaabk
0aaabo
1aaabp
1aaabr
0aaacg
0aaach

#71
0aaaaq
0aaabc
0aaabk
0aaabp
0aaabr

#72
1aaaaq
1aaabc
1aaabk
1aaabp
1aaabr

#73
0aaaaq
0aaabc
0aaabk
0aaabp
0aaabr

#74
1aaaaq
1aaabc
1aaabk
1aaabp
1aaabr

#75
0aaaaq
0aaabc
0aaabk
0aaabp
0aaabr

#76
1aaaaq
1aaaas
1aaabc
1aaabg
1aaabk
1aaabl
1aaabp
1aaabr

#77
0aaaaq
0aaabc
0aaabk
0aaabp
0aaabr

#78
1aaaaq
0aaaas
1aaabc
0aaabg
0aaabi
1aaabk
0aaabl
0aaabn
1aaabp
1aaabr

#79
0aaaaq
0aaabc
0aaabk
0aaabp
0aaabr

#80
1aaaaa
1aaaab
1aaaaq
1aaabc
1aaabj
1aaabk
1aaabo
1aaabp
1aaabr
1aaacg
1aaach

#81
0aaaaq
0aaabc
0aaabk
0aaabp
0aaabr

#82
1aaaaq
1aaabc
1aaabk
1aaabp
1aaabr

#83
0aaaaq
0aaabc
0aaabk
0aaabp
0aaabr

#84
1aaaaq
1aaabc
1aaabk
1aaabp
1aaabr

#85
0aaaaq
0aaabc
0aaabk
0aaabp
0aaabr

#86
1aaaaq
1aaabc
1aaabh
1aaabk
1aaabm
1aaabp
1aaabr

#87
0aaaaq
0aaabc
0aaabk
0aaabp
0aaabr

#88
1aaaaq
1aaabc
0aaabh
1aaabi
1aaabk
0aaabm
1aaabn
1aaabp
1aaabr

#89
0aaaaq
0aaabc
0aaabk
0aaabp
0aaabr

#90
0aaaaa
0aaaab
1aaaaq
1aaabc
0aaabj
1aaabk
0aaabo
1aaabp
1aaabr
0aaacg
0aaach

#91
0aaaaq
0aaabc
0aaabk
0aaabp
0aaabr

#92
1aaaaq
1aaabc
1aaabk
1aaabp
1aaabr

#93
0aaaaq
0aaabc
0aaabk
0aaabp
0aaabr

#94
1aaaaq
1aaabc
1aaabk
1aaabp
1aaabr

#95
0aaaaq
0aaabc
0aaabk
0aaabp
0aaabr

#96
1aaaaq
1aaaas
1aaabc
1aaabg
1aaabk
1aaabl
1aaabp
1aaabr

#97
0aaaaq
0aaabc
0aaabk
0aaabp
0aaabr

#98
1aaaaq
0aaaas
1aaabc
0aaabg
0aaabi
1aaabk
0aaabl
0aaabn
1aaabp
1aaabr

#99
0aaaaq
0aaabc
0aaabk
0aaabp
0aaabr

#100
1aaaaa
1aaaab
1aaaaq
1aaabc
1aaabj
1aaabk
1aaabo
1aaabp
1aaabr
1aaacg
1aaach

#101
0aaaaq
0aaabc
0aaabk
0aaabp
0aaabr

#102
1aaaaq
1aaabc
1aaabk
1aaabp
1aaabr

#103
0aaaaq
0aaabc
0aaabk
0aaabp
0aaabr

#104
1aaaaq
1aaabc
1aaabk
1aaabp
1aaabr

#105
0aaaaq
0aaabc
0aaabk
0aaabp
0aaabr

#106
1aaaaq
1aaabc
1aaabh
1aaabk
1aaabm
1aaabp
1aaabr

#107
0aaaaq
0aaabc
0aaabk
0aaabp
0aaabr

#108
1aaaaq
1aaabc
0aaabh
1aaabi
1aaabk
0aaabm
1aaabn
1aaabp
1aaabr

#109
0aaaaq
0aaabc
0aaabk
0aaabp
0aaabr

#110
0aaaaa
0aaaab
1aaaaq
1aaabc
0aaabj
1aaabk
0aaabo
1aaabp
1aaabr
0aaacg
0aaach

#111
0aaaaq
0aaabc
0aaabk
0aaabp
0aaabr

#112
1aaaaq
1aaabc
1aaabk
1aaabp
1aaabr

#113
0aaaaq
0aaabc
0aaabk
0aaabp
0aaabr

#114
1aaaaq
1aaabc
1aaabk
1aaabp
1aaabr

#115
0aaaaq
0aaabc
0aaabk
0aaabp
0aaabr

#116
1aaaaq
1aaaas
1aaabc
1aaabg
1aaabk
1aaabl
1aaabp
1aaabr

#117
0aaaaq
0aaabc
0aaabk
0aaabp
0aaabr

#118
1aaaaq
0aaaas
1aaabc
0aaabg
0aaabi
1aaabk
0aaabl
0aaabn
1aaabp
1aaabr

#119
0aaaaq
0aaabc
0aaabk
0aaabp
0aaabr

#120
1aaaaa
1aaaab
1aaaaq
1aaabc
1aaabj
1aaabk
1aaabo
1aaabp
1aaabr
1aaacg
1aaach

#121
0aaaaq
0aaabc
0aaabk
0aaabp
0aaabr

#122
1aaaaq
1aaabc
1aaabk
1aaabp
1aaabr

#123
0aaaaq
0aaabc
0aaabk
0aaabp
0aaabr

#124
1aaaaq
1aaabc
1aaabk
1aaabp
1aaabr

#125
0aaaaq
0aaabc
0aaabk
0aaabp
0aaabr

#126
1aaaaq
1aaabc
1aaabh
1aaabk
1aaabm
1aaabp
1aaabr

#127
0aaaaq
0aaabc
0aaabk
0aaabp
0aaabr

#128
1aaaaq
1aaabc
0aaabh
1aaabi
1aaabk
0aaabm
1aaabn
1aaabp
1aaabr

#129
0aaaaq
0aaabc
0aaabk
0aaabp
0aaabr

#130
0aaaaa
0aaaab
1aaaaq
1aaabc
0aaabj
1aaabk
0aaabo
1aaabp
1aaabr
0aaacg
0aaach

#131
0aaaaq
0aaabc
0aaabk
0aaabp
0aaabr

#132
1aaaaq
1aaabc
1aaabk
1aaabp
1aaabr

#133
0aaaaq
0aaabc
0aaabk
0aaabp
0aaabr

#134
1aaaaq
1aaabc
1aaabk
1aaabp
1aaabr

#135
0aaaaq
0aaabc
0aaabk
0aaabp
0aaabr

#136
1aaaaq
1aaaas
1aaabc
1aaabg
1aaabk
1aaabl
1aaabp
1aaabr

#137
0aaaaq
0aaabc
0aaabk
0aaabp
0aaabr

#138
1aaaaq
0aaaas
1aaabc
0aaabg
0aaabi
1aaabk
0aaabl
0aaabn
1aaabp
1aaabr

#139
0aaaaq
0aaabc
0aaabk
0aaabp
0aaabr

#140
1aaaaa
1aaaab
1aaaaq
1aaabc
1aaabj
1aaabk
1aaabo
1aaabp
1aaabr
1aaacg
1aaach

#141
0aaaaq
0aaabc
0aaabk
0aaabp
0aaabr

#142
1aaaaq
1aaabc
1aaabk
1aaabp
1aaabr

#143
0aaaaq
0aaabc
0aaabk
0aaabp
0aaabr

#144
1aaaaq
1aaabc
1aaabk
1aaabp
1aaabr

#145
0aaaaq
0aaabc
0aaabk
0aaabp
0aaabr

#146
1aaaaq
1aaabc
1aaabh
1aaabk
1aaabm
1aaabp
1aaabr

#147
0aaaaq
0aaabc
0aaabk
0aaabp
0aaabr

#148
1aaaaq
1aaabc
0aaabh
1aaabi
1aaabk
0aaabm
1aaabn
1aaabp
1aaabr

#149
0aaaaq
0aaabc
0aaabk
0aaabp
0aaabr

#150
0aaaaa
0aaaab
1aaaaq
1aaabc
0aaabj
1aaabk
0aaabo
1aaabp
1aaabr
0aaacg
0aaach

#151
0aaaaq
0aaabc
0aaabk
0aaabp
0aaabr

#152
1aaaaq
1aaabc
1aaabk
1aaabp
1aaabr

#153
0aaaaq
0aaabc
0aaabk
0aaabp
0aaabr

#154
1aaaaq
1aaabc
1aaabk
1aaabp
1aaabr

#155
0aaaaq
0aaabc
0aaabk
0aaabp
0aaabr

#156
1aaaaq
1aaaas
1aaabc
1aaabg
1aaabk
1aaabl
1aaabp
1aaabr

#157
0aaaaq
0aaabc
0aaabk
0aaabp
0aaabr

#158
1aaaaq
0aaaas
1aaabc
0aaabg
0aaabi
1aaabk
0aaabl
0aaabn
1aaabp
1aaabr

#159
0aaaaq
0aaabc
0aaabk
0aaabp
0aaabr

#160
1aaaaa
1aaaab
1aaaaq
1aaabc
1aaabj
1aaabk
1aaabo
1aaabp
1aaabr
1aaacg
1aaach

#161
0aaaaq
0aaabc
0aaabk
0aaabp
0aaabr

#162
1aaaaq
1aaabc
1aaabk
1aaabp
1aaabr

#163
0aaaaq
0aaabc
0aaabk
0aaabp
0aaabr

#164
1aaaaq
1aaabc
1aaabk
1aaabp
1aaabr

#165
0aaaaq
0aaabc
0aaabk
0aaabp
0aaabr

#166
1aaaaq
1aaabc
1aaabh
1aaabk
1aaabm
1aaabp
1aaabr

#167
0aaaaq
0aaabc
0aaabk
0aaabp
0aaabr

#168
1aaaaq
1aaabc
0aaabh
1aaabi
1aaabk
0aaabm
1aaabn
1aaabp
1aaabr

#169
0aaaaq
0aaabc
0aaabk
0aaabp
0aaabr

#170
0aaaaa
0aaaab
1aaaaq
1aaabc
0aaabj
1aaabk
0aaabo
1aaabp
1aaabr
0aaacg
0aaach

#171
0aaaaq
0aaabc
0aaabk
0aaabp
0aaabr

#172
1aaaaq
1aaabc
1aaabk
1aaabp
1aaabr

#173
0aaaaq
0aaabc
0aaabk
0aaabp
0aaabr

#174
1aaaaq
1aaabc
1aaabk
1aaabp
1aaabr

#175
0aaaaq
0aaabc
0aaabk
0aaabp
0aaabr

#176
1aaaaq
1aaaas
1aaabc
1aaabg
1aaabk
1aaabl
1aaabp
1aaabr

#177
0aaaaq
0aaabc
0aaabk
0aaabp
0aaabr

#178
1aaaaq
0aaaas
1aaabc
0aaabg
0aaabi
1aaabk
0aaabl
0aaabn
1aaabp
1aaabr

#179
0aaaaq
0aaabc
0aaabk
0aaabp
0aaabr

#180
1aaaaa
1aaaab
1aaaaq
1aaabc
1aaabj
1aaabk
1aaabo
1aaabp
1aaabr
1aaacg
1aaach

#181
0aaaaq
0aaabc
0aaabk
0aaabp
0aaabr

#182
1aaaaq
1aaabc
1aaabk
1aaabp
1aaabr

#183
0aaaaq
0aaabc
0aaabk
0aaabp
0aaabr

#184
1aaaaq
1aaabc
1aaabk
1aaabp
1aaabr

#185
0aaaaq
0aaabc
0aaabk
0aaabp
0aaabr

#186
1aaaaq
1aaabc
1aaabh
1aaabk
1aaabm
1aaabp
1aaabr

#187
0aaaaq
0aaabc
0aaabk
0aaabp
0aaabr

#188
1aaaaq
1aaabc
0aaabh
1aaabi
1aaabk
0aaabm
1aaabn
1aaabp
1aaabr

#189
0aaaaq
0aaabc
0aaabk
0aaabp
0aaabr

#190
0aaaaa
0aaaab
1aaaaq
1aaabc
0aaabj
1aaabk
0aaabo
1aaabp
1aaabr
0aaacg
0aaach

#191
0aaaaq
0aaabc
0aaabk
0aaabp
0aaabr

#192
1aaaaq
1aaabc
1aaabk
1aaabp
1aaabr

#193
0aaaaq
0aaabc
0aaabk
0aaabp
0aaabr

#194
1aaaaq
1aaabc
1aaabk
1aaabp
1aaabr

#195
0aaaaq
0aaabc
0aaabk
0aaabp
0aaabr

#196
1aaaaq
1aaaas
1aaabc
1aaabg
1aaabk
1aaabl
1aaabp
1aaabr

#197
0aaaaq
0aaabc
0aaabk
0aaabp
0aaabr

#198
1aaaaq
0aaaas
1aaabc
0aaabg
0aaabi
1aaabk
0aaabl
0aaabn
1aaabp
1aaabr

#199
0aaaaq
0aaabc
0aaabk
0aaabp
0aaabr

#200
1aaaaa
1aaaab
1aaaaq
1aaabc
1aaabj
1aaabk
1aaabo
1aaabp
1aaabr
1aaacg
1aaach

#201
0aaaaq
0aaabc
0aaabk
0aaabp
0aaabr

#202
1aaaaq
1aaabc
1aaabk
1aaabp
1aaabr

#203
0aaaaq
0aaabc
0aaabk
0aaabp
0aaabr

#204
1aaaaq
1aaabc
1aaabk
1aaabp
1aaabr

#205
0aaaaq
0aaabc
0aaabk
0aaabp
0aaabr

#206
1aaaaq
1aaabc
1aaabh
1aaabk
1aaabm
1aaabp
1aaabr

#207
0aaaaq
0aaabc
0aaabk
0aaabp
0aaabr

#208
1aaaaq
1aaabc
0aaabh
1aaabi
1aaabk
0aaabm
1aaabn
1aaabp
1aaabr

#209
0aaaaq
0aaabc
0aaabk
0aaabp
0aaabr

#210
0aaaaa
0aaaab
1aaaaq
1aaabc
0aaabj
1aaabk
0aaabo
1aaabp
1aaabr
0aaacg
0aaach

#211
0aaaaq
0aaabc
0aaabk
0aaabp
0aaabr

#212
1aaaaq
1aaabc
1aaabk
1aaabp
1aaabr

#213
0aaaaq
0aaabc
0aaabk
0aaabp
0aaabr

#214
1aaaaq
1aaabc
1aaabk
1aaabp
1aaabr

#215
0aaaaq
0aaabc
0aaabk
0aaabp
0aaabr

#216
1aaaaq
1aaaas
1aaabc
1aaabg
1aaabk
1aaabl
1aaabp
1aaabr

#217
0aaaaq
0aaabc
0aaabk
0aaabp
0aaabr

#218
1aaaaq
0aaaas
1aaabc
0aaabg
0aaabi
1aaabk
0aaabl
0aaabn
1aaabp
1aaabr

#219
0aaaaq
0aaabc
0aaabk
0aaabp
0aaabr

#220
1aaaaa
1aaaab
1aaaaq
1aaabc
1aaabj
1aaabk
1aaabo
1aaabp
1aaabr
1aaacg
1aaach

#221
0aaaaq
0aaabc
0aaabk
0aaabp
0aaabr

#222
1aaaaq
1aaabc
1aaabk
1aaabp
1aaabr

#223
0aaaaq
0aaabc
0aaabk
0aaabp
0aaabr

#224
1aaaaq
1aaabc
1aaabk
1aaabp
1aaabr

#225
0aaaaq
0aaabc
0aaabk
0aaabp
0aaabr

#226
1aaaaq
1aaabc
1aaabh
1aaabk
1aaabm
1aaabp
1aaabr

#227
0aaaaq
0aaabc
0aaabk
0aaabp
0aaabr

#228
1aaaaq
1aaabc
0aaabh
1aaabi
1aaabk
0aaabm
1aaabn
1aaabp
1aaabr

#229
0aaaaq
0aaabc
0aaabk
0aaabp
0aaabr

#230
0aaaaa
0aaaab
1aaaaq
1aaabc
0aaabj
1aaabk
0aaabo
1aaabp
1aaabr
0aaacg
0aaach

#231
0aaaaq
0aaabc
0aaabk
0aaabp
0aaabr

#232
1aaaaq
1aaabc
1aaabk
1aaabp
1aaabr

#233
0aaaaq
0aaabc
0aaabk
0aaabp
0aaabr

#234
1aaaaq
1aaabc
1aaabk
1aaabp
1aaabr

#235
0aaaaq
0aaabc
0aaabk
0aaabp
0aaabr

#236
1aaaaq
1aaaas
1aaabc
1aaabg
1aaabk
1aaabl
1aaabp
1aaabr

#237
0aaaaq
0aaabc
0aaabk
0aaabp
0aaabr

#238
1aaaaq
0aaaas
1aaabc
0aaabg
0aaabi
1aaabk
0aaabl
0aaabn
1aaabp
1aaabr

#239
0aaaaq
0aaabc
0aaabk
0aaabp
0aaabr

#240
1aaaaa
1aaaab
1aaaaq
1aaabc
1aaabj
1aaabk
1aaabo
1aaabp
1aaabr
1aaacg
1aaach

#241
0aaaaq
0aaabc
0aaabk
0aaabp
0aaabr

#242
1aaaaq
1aaabc
1aaabk
1aaabp
1aaabr

#243
0aaaaq
0aaabc
0aaabk
0aaabp
0aaabr

#244
1aaaaq
1aaabc
1aaabk
1aaabp
1aaabr

#245
0aaaaq
0aaabc
0aaabk
0aaabp
0aaabr

#246
1aaaaq
1aaabc
1aaabh
1aaabk
1aaabm
1aaabp
1aaabr

#247
0aaaaq
0aaabc
0aaabk
0aaabp
0aaabr

#248
1aaaaq
1aaabc
0aaabh
1aaabi
1aaabk
0aaabm
1aaabn
1aaabp
1aaabr

#249
0aaaaq
0aaabc
0aaabk
0aaabp
0aaabr

#250
0aaaaa
0aaaab
1aaaaq
1aaabc
0aaabj
1aaabk
0aaabo
1aaabp
1aaabr
0aaacg
0aaach

#251
0aaaaq
0aaabc
0aaabk
0aaabp
0aaabr

#252
1aaaaq
1aaabc
1aaabk
1aaabp
1aaabr

#253
0aaaaq
0aaabc
0aaabk
0aaabp
0aaabr

#254
1aaaaq
1aaabc
1aaabk
1aaabp
1aaabr

#255
0aaaaq
0aaabc
0aaabk
0aaabp
0aaabr

#256
1aaaaq
1aaaas
1aaabc
1aaabg
1aaabk
1aaabl
1aaabp
1aaabr

#257
0aaaaq
0aaabc
0aaabk
0aaabp
0aaabr

#258
1aaaaq
0aaaas
1aaabc
0aaabg
0aaabi
1aaabk
0aaabl
0aaabn
1aaabp
1aaabr

#259
0aaaaq
0aaabc
0aaabk
0aaabp
0aaabr

#260
1aaaaa
1aaaab
1aaaaq
1aaabc
1aaabj
1aaabk
1aaabo
1aaabp
1aaabr
1aaacg
1aaach

#261
0aaaaq
0aaabc
0aaabk
0aaabp
0aaabr

#262
1aaaaq
1aaabc
1aaabk
1aaabp
1aaabr

#263
0aaaaq
0aaabc
0aaabk
0aaabp
0aaabr

#264
1aaaaq
1aaabc
1aaabk
1aaabp
1aaabr

#265
0aaaaq
0aaabc
0aaabk
0aaabp
0aaabr

#266
1aaaaq
1aaabc
1aaabh
1aaabk
1aaabm
1aaabp
1aaabr

#267
0aaaaq
0aaabc
0aaabk
0aaabp
0aaabr

#268
1aaaaq
1aaabc
0aaabh
1aaabi
1aaabk
0aaabm
1aaabn
1aaabp
1aaabr

#269
0aaaaq
0aaabc
0aaabk
0aaabp
0aaabr

#270
0aaaaa
0aaaab
1aaaaq
1aaabc
0aaabj
1aaabk
0aaabo
1aaabp
1aaabr
0aaacg
0aaach

#271
0aaaaq
0aaabc
0aaabk
0aaabp
0aaabr

#272
1aaaaq
1aaabc
1aaabk
1aaabp
1aaabr

#273
0aaaaq
0aaabc
0aaabk
0aaabp
0aaabr

#274
1aaaaq
1aaabc
1aaabk
1aaabp
1aaabr

#275
0aaaaq
0aaabc
0aaabk
0aaabp
0aaabr

#276
1aaaaq
1aaaas
1aaabc
1aaabg
1aaabk
1aaabl
1aaabp
1aaabr

#277
0aaaaq
0aaabc
0aaabk
0aaabp
0aaabr

#278
1aaaaq
0aaaas
1aaabc
0aaabg
0aaabi
1aaabk
0aaabl
0aaabn
1aaabp
1aaabr

#279
0aaaaq
0aaabc
0aaabk
0aaabp
0aaabr

#280
1aaaaa
1aaaab
1aaaaq
1aaabc
1aaabj
1aaabk
1aaabo
1aaabp
1aaabr
1aaacg
1aaach

#281
0aaaaq
0aaabc
0aaabk
0aaabp
0aaabr

#282
1aaaaq
1aaabc
1aaabk
1aaabp
1aaabr

#283
0aaaaq
0aaabc
0aaabk
0aaabp
0aaabr

#284
1aaaaq
1aaabc
1aaabk
1aaabp
1aaabr

#285
0aaaaq
0aaabc
0aaabk
0aaabp
0aaabr

#286
1aaaaq
1aaabc
1aaabh
1aaabk
1aaabm
1aaabp
1aaabr

#287
0aaaaq
0aaabc
0aaabk
0aaabp
0aaabr

#288
1aaaaq
1aaabc
0aaabh
1aaabi
1aaabk
0aaabm
1aaabn
1aaabp
1aaabr

#289
0aaaaq
0aaabc
0aaabk
0aaabp
0aaabr

#290
0aaaaa
0aaaab
1aaaaq
1aaabc
0aaabj
1aaabk
0aaabo
1aaabp
1aaabr
0aaacg
0aaach

#291
0aaaaq
0aaabc
0aaabk
0aaabp
0aaabr

#292
1aaaaq
1aaabc
1aaabk
1aaabp
1aaabr

#293
0aaaaq
0aaabc
0aaabk
0aaabp
0aaabr

#294
1aaaaq
1aaabc
1aaabk
1aaabp
1aaabr

#295
0aaaaq
0aaabc
0aaabk
0aaabp
0aaabr

#296
1aaaaq
1aaaas
1aaabc
1aaabg
1aaabk
1aaabl
1aaabp
1aaabr

#297
0aaaaq
0aaabc
0aaabk
0aaabp
0aaabr

#298
1aaaaq
0aaaas
1aaabc
0aaabg
0aaabi
1aaabk
0aaabl
0aaabn
1aaabp
1aaabr

#299
0aaaaq
0aaabc
0aaabk
0aaabp
0aaabr

#300
1aaaaa
1aaaab
1aaaaq
1aaabc
1aaabj
1aaabk
1aaabo
1aaabp
1aaabr
1aaacg
1aaach

#301
0aaaaq
0aaabc
0aaabk
0aaabp
0aaabr

#302
1aaaaq
1aaabc
1aaabk
1aaabp
1aaabr

#303
0aaaaq
0aaabc
0aaabk
0aaabp
0aaabr

#304
1aaaaq
1aaabc
1aaabk
1aaabp
1aaabr

#305
0aaaaq
0aaabc
0aaabk
0aaabp
0aaabr

#306
1aaaaq
1aaabc
1aaabh
1aaabk
1aaabm
1aaabp
1aaabr

#307
0aaaaq
0aaabc
0aaabk
0aaabp
0aaabr

#308
1aaaaq
1aaabc
0aaabh
1aaabi
1aaabk
0aaabm
1aaabn
1aaabp
1aaabr

#309
0aaaaq
0aaabc
0aaabk
0aaabp
0aaabr

