i2c_to_wb_top.vcd
$date
     Jun 28, 2018       15:16:03
$end

$version
 SystemC 2.3.2-Accellera --- Jun 24 2018 09:42:57
$end

$timescale
     1 ns
$end

$scope module SystemC $end
$var wire    1  aaaaa  i2c_data_in       $end
$var wire    1  aaaab  i2c_clk_in       $end
$var wire    1  aaaac  i2c_data_out       $end
$var wire    1  aaaad  i2c_clk_out       $end
$var wire    1  aaaae  i2c_data_oe       $end
$var wire    1  aaaaf  i2c_clk_oe       $end
$var wire   32  aaaag  wb_data_i [31:0]  $end
$var wire   32  aaaah  wb_data_o [31:0]  $end
$var wire    8  aaaai  wb_addr_o [7:0]  $end
$var wire    4  aaaaj  wb_sel_o [3:0]  $end
$var wire    1  aaaak  wb_we_o       $end
$var wire    1  aaaal  wb_cyc_o       $end
$var wire    1  aaaam  wb_stb_o       $end
$var wire    1  aaaan  wb_ack_i       $end
$var wire    1  aaaao  wb_err_i       $end
$var wire    1  aaaap  wb_rty_i       $end
$var wire    1  aaaaq  wb_clk_i       $end
$var wire    1  aaaar  wb_rst_i       $end
$scope module i2c_to_wb_top $end
$var wire    1  aaacj  wb_rst_i       $end
$var wire    1  aaack  wb_clk_i       $end
$var wire    1  aaacl  wb_rty_i       $end
$var wire    1  aaacm  wb_err_i       $end
$var wire    1  aaacn  wb_ack_i       $end
$var wire    1  aaaco  wb_stb_o       $end
$var wire    1  aaacp  wb_cyc_o       $end
$var wire    1  aaacq  wb_we_o       $end
$var wire    4  aaacr  wb_sel_o [3:0]  $end
$var wire    8  aaacs  wb_addr_o [7:0]  $end
$var wire   32  aaact  wb_data_o [31:0]  $end
$var wire   32  aaacu  wb_data_i [31:0]  $end
$var wire    1  aaacv  i2c_clk_oe       $end
$var wire    1  aaacw  i2c_data_oe       $end
$var wire    1  aaacx  i2c_clk_out       $end
$var wire    1  aaacy  i2c_data_out       $end
$var wire    1  aaacz  i2c_clk_in       $end
$var wire    1  aaada  i2c_data_in       $end
$scope module i_i2c_to_wb_if $end
$var wire    1  aaaaz  i2c_r_w_bit       $end
$var wire    8  aaaba  i2c_offset_r [7:0]  $end
$upscope $end
$scope module topClockGlitchFilter $end
$var wire    1  aaabz  fall       $end
$var wire    1  aaaca  rise       $end
$var wire    1  aaacb  out       $end
$var wire    1  aaacc  in       $end
$var wire    1  aaacd  clk       $end
$upscope $end
$scope module topConfig $end
$var wire    1  aaabb  wb_rst_i       $end
$var wire    1  aaabc  wb_clk_i       $end
$var wire    1  aaabd  i2c_ack_out       $end
$var wire    1  aaabe  tip_addr_ack       $end
$var wire    8  aaabf  i2c_byte_in [7:0]  $end
$upscope $end
$scope module topDataGlitchFilter $end
$var wire    1  aaace  fall       $end
$var wire    1  aaacf  rise       $end
$var wire    1  aaacg  out       $end
$var wire    1  aaach  in       $end
$var wire    1  aaaci  clk       $end
$upscope $end
$scope module topFSM $end
$var wire    1  aaaas  start_detected       $end
$var wire    1  aaaat  stop_detected       $end
$var wire    1  aaaau  tip_ack       $end
$var wire    1  aaaav  xmt_byte_done       $end
$var wire   32  aaaaw  state [31:0]  $end
$var wire   32  aaaax  next_state [31:0]  $end
$var wire    4  aaaay  bit_count [3:0]  $end
$var wire    8  aaabg  state_out [7:0]  $end
$var wire    1  aaabh  i2c_error       $end
$var wire    1  aaabi  tip_addr_ack       $end
$var wire    1  aaabj  tip_rd_ack       $end
$var wire    1  aaabk  tip_wr_ack       $end
$var wire    1  aaabl  tip_write_byte       $end
$var wire    1  aaabm  tip_read_byte       $end
$var wire    1  aaabn  tip_addr_byte       $end
$var wire    1  aaabo  i2c_ack_done       $end
$var wire    1  aaabp  wb_rst_i       $end
$var wire    1  aaabq  wb_clk_i       $end
$var wire    1  aaabr  i2c_ack_out       $end
$var wire    1  aaabs  i2c_r_w_bit       $end
$var wire    1  aaabt  next_state       $end
$var wire    1  aaabu  i2c_clk_rise       $end
$var wire    1  aaabv  i2c_clk       $end
$var wire    1  aaabw  i2c_data_fall       $end
$var wire    1  aaabx  i2c_data_rise       $end
$var wire    1  aaaby  i2c_data       $end
$upscope $end
$upscope $end
$upscope $end
$enddefinitions  $end

$comment
All initial values are dumped below at time 0 sec = 0 timescale units.
$end

$dumpvars
1aaaaa
1aaaab
0aaaac
1aaaad
0aaaae
0aaaaf
b1 aaaag
b0 aaaah
b0 aaaai
b1 aaaaj
0aaaak
0aaaal
0aaaam
0aaaan
0aaaao
0aaaap
1aaaaq
1aaaar
0aaaas
0aaaat
0aaaau
0aaaav
b0 aaaaw
b0 aaaax
b100 aaaay
0aaaaz
b0 aaaba
1aaabb
1aaabc
0aaabd
0aaabe
b0 aaabf
b1 aaabg
0aaabh
0aaabi
0aaabj
0aaabk
0aaabl
0aaabm
0aaabn
0aaabo
1aaabp
1aaabq
0aaabr
0aaabs
0aaabt
0aaabu
0aaabv
0aaabw
0aaabx
0aaaby
0aaabz
0aaaca
0aaacb
1aaacc
1aaacd
0aaace
0aaacf
0aaacg
1aaach
1aaaci
1aaacj
1aaack
0aaacl
0aaacm
0aaacn
0aaaco
0aaacp
0aaacq
b1 aaacr
b0 aaacs
b0 aaact
b1 aaacu
0aaacv
0aaacw
1aaacx
0aaacy
1aaacz
1aaada
$end

#1
0aaaaq
0aaabc
0aaabq
0aaacd
0aaaci
0aaack

#2
1aaaaq
1aaabc
1aaabq
1aaacd
1aaaci
1aaack

#3
0aaaaq
0aaabc
0aaabq
0aaacd
0aaaci
0aaack

#4
1aaaaq
1aaabc
1aaabq
1aaacd
1aaaci
1aaack

#5
0aaaaq
0aaabc
0aaabq
0aaacd
0aaaci
0aaack

#6
1aaaaq
1aaabc
1aaabq
1aaabu
1aaabx
1aaaca
1aaacd
1aaacf
1aaaci
1aaack

#7
0aaaaq
0aaabc
0aaabq
0aaacd
0aaaci
0aaack

#8
1aaaaq
1aaabc
1aaabq
0aaabu
1aaabv
0aaabx
1aaaby
0aaaca
1aaacb
1aaacd
0aaacf
1aaacg
1aaaci
1aaack

#9
0aaaaq
0aaabc
0aaabq
0aaacd
0aaaci
0aaack

#10
0aaaaa
0aaaab
1aaaaq
0aaaar
0aaabb
1aaabc
0aaabp
1aaabq
0aaacc
1aaacd
0aaach
1aaaci
0aaacj
1aaack
0aaacz
0aaada

#11
0aaaaq
0aaabc
0aaabq
0aaacd
0aaaci
0aaack

#12
1aaaaq
1aaabc
1aaabq
1aaacd
1aaaci
1aaack

#13
0aaaaq
0aaabc
0aaabq
0aaacd
0aaaci
0aaack

#14
1aaaaq
1aaabc
1aaabq
1aaacd
1aaaci
1aaack

#15
0aaaaq
0aaabc
0aaabq
0aaacd
0aaaci
0aaack

#16
1aaaaq
1aaaas
1aaabc
1aaabq
1aaabt
1aaabw
1aaabz
1aaacd
1aaace
1aaaci
1aaack

#17
0aaaaq
0aaabc
0aaabq
0aaacd
0aaaci
0aaack

#18
1aaaaq
0aaaas
1aaabc
b10 aaabg
1aaabl
1aaabn
1aaabq
0aaabt
0aaabv
0aaabw
0aaaby
0aaabz
0aaacb
1aaacd
0aaace
0aaacg
1aaaci
1aaack

#19
0aaaaq
0aaabc
0aaabq
0aaacd
0aaaci
0aaack

#20
1aaaaa
1aaaab
1aaaaq
1aaabc
1aaabq
1aaacc
1aaacd
1aaach
1aaaci
1aaack
1aaacz
1aaada

#21
0aaaaq
0aaabc
0aaabq
0aaacd
0aaaci
0aaack

#22
1aaaaq
1aaabc
1aaabq
1aaacd
1aaaci
1aaack

#23
0aaaaq
0aaabc
0aaabq
0aaacd
0aaaci
0aaack

#24
1aaaaq
1aaabc
1aaabq
1aaacd
1aaaci
1aaack

#25
0aaaaq
0aaabc
0aaabq
0aaacd
0aaaci
0aaack

#26
1aaaaq
1aaabc
1aaabq
1aaabu
1aaabx
1aaaca
1aaacd
1aaacf
1aaaci
1aaack

#27
0aaaaq
0aaabc
0aaabq
0aaacd
0aaaci
0aaack

#28
1aaaaq
1aaabc
1aaabq
0aaabu
1aaabv
0aaabx
1aaaby
0aaaca
1aaacb
1aaacd
0aaacf
1aaacg
1aaaci
1aaack

#29
0aaaaq
0aaabc
0aaabq
0aaacd
0aaaci
0aaack

#30
0aaaaa
0aaaab
1aaaaq
1aaabc
1aaabq
0aaacc
1aaacd
0aaach
1aaaci
1aaack
0aaacz
0aaada

#31
0aaaaq
0aaabc
0aaabq
0aaacd
0aaaci
0aaack

#32
1aaaaq
1aaabc
1aaabq
1aaacd
1aaaci
1aaack

#33
0aaaaq
0aaabc
0aaabq
0aaacd
0aaaci
0aaack

#34
1aaaaq
1aaabc
1aaabq
1aaacd
1aaaci
1aaack

#35
0aaaaq
0aaabc
0aaabq
0aaacd
0aaaci
0aaack

#36
1aaaaq
1aaaas
1aaabc
1aaabq
1aaabt
1aaabw
1aaabz
1aaacd
1aaace
1aaaci
1aaack

#37
0aaaaq
0aaabc
0aaabq
0aaacd
0aaaci
0aaack

#38
1aaaaq
0aaaas
1aaabc
1aaabq
0aaabt
0aaabv
0aaabw
0aaaby
0aaabz
0aaacb
1aaacd
0aaace
0aaacg
1aaaci
1aaack

#39
0aaaaq
0aaabc
0aaabq
0aaacd
0aaaci
0aaack

#40
1aaaaa
1aaaab
1aaaaq
1aaabc
1aaabq
1aaacc
1aaacd
1aaach
1aaaci
1aaack
1aaacz
1aaada

#41
0aaaaq
0aaabc
0aaabq
0aaacd
0aaaci
0aaack

#42
1aaaaq
1aaabc
1aaabq
1aaacd
1aaaci
1aaack

#43
0aaaaq
0aaabc
0aaabq
0aaacd
0aaaci
0aaack

#44
1aaaaq
1aaabc
1aaabq
1aaacd
1aaaci
1aaack

#45
0aaaaq
0aaabc
0aaabq
0aaacd
0aaaci
0aaack

#46
1aaaaq
1aaabc
1aaabq
1aaabu
1aaabx
1aaaca
1aaacd
1aaacf
1aaaci
1aaack

#47
0aaaaq
0aaabc
0aaabq
0aaacd
0aaaci
0aaack

#48
1aaaaq
1aaabc
1aaabq
0aaabu
1aaabv
0aaabx
1aaaby
0aaaca
1aaacb
1aaacd
0aaacf
1aaacg
1aaaci
1aaack

#49
0aaaaq
0aaabc
0aaabq
0aaacd
0aaaci
0aaack

#50
0aaaaa
0aaaab
1aaaaq
1aaabc
1aaabq
0aaacc
1aaacd
0aaach
1aaaci
1aaack
0aaacz
0aaada

#51
0aaaaq
0aaabc
0aaabq
0aaacd
0aaaci
0aaack

#52
1aaaaq
1aaabc
1aaabq
1aaacd
1aaaci
1aaack

#53
0aaaaq
0aaabc
0aaabq
0aaacd
0aaaci
0aaack

#54
1aaaaq
1aaabc
1aaabq
1aaacd
1aaaci
1aaack

#55
0aaaaq
0aaabc
0aaabq
0aaacd
0aaaci
0aaack

#56
1aaaaq
1aaaas
1aaabc
1aaabq
1aaabt
1aaabw
1aaabz
1aaacd
1aaace
1aaaci
1aaack

#57
0aaaaq
0aaabc
0aaabq
0aaacd
0aaaci
0aaack

#58
1aaaaq
0aaaas
1aaabc
1aaabq
0aaabt
0aaabv
0aaabw
0aaaby
0aaabz
0aaacb
1aaacd
0aaace
0aaacg
1aaaci
1aaack

#59
0aaaaq
0aaabc
0aaabq
0aaacd
0aaaci
0aaack

#60
1aaaaa
1aaaab
1aaaaq
1aaabc
1aaabq
1aaacc
1aaacd
1aaach
1aaaci
1aaack
1aaacz
1aaada

#61
0aaaaq
0aaabc
0aaabq
0aaacd
0aaaci
0aaack

#62
1aaaaq
1aaabc
1aaabq
1aaacd
1aaaci
1aaack

#63
0aaaaq
0aaabc
0aaabq
0aaacd
0aaaci
0aaack

#64
1aaaaq
1aaabc
1aaabq
1aaacd
1aaaci
1aaack

#65
0aaaaq
0aaabc
0aaabq
0aaacd
0aaaci
0aaack

#66
1aaaaq
1aaabc
1aaabq
1aaabu
1aaabx
1aaaca
1aaacd
1aaacf
1aaaci
1aaack

#67
0aaaaq
0aaabc
0aaabq
0aaacd
0aaaci
0aaack

#68
1aaaaq
1aaabc
1aaabq
0aaabu
1aaabv
0aaabx
1aaaby
0aaaca
1aaacb
1aaacd
0aaacf
1aaacg
1aaaci
1aaack

#69
0aaaaq
0aaabc
0aaabq
0aaacd
0aaaci
0aaack

#70
0aaaaa
0aaaab
1aaaaq
1aaabc
1aaabq
0aaacc
1aaacd
0aaach
1aaaci
1aaack
0aaacz
0aaada

#71
0aaaaq
0aaabc
0aaabq
0aaacd
0aaaci
0aaack

#72
1aaaaq
1aaabc
1aaabq
1aaacd
1aaaci
1aaack

#73
0aaaaq
0aaabc
0aaabq
0aaacd
0aaaci
0aaack

#74
1aaaaq
1aaabc
1aaabq
1aaacd
1aaaci
1aaack

#75
0aaaaq
0aaabc
0aaabq
0aaacd
0aaaci
0aaack

#76
1aaaaq
1aaaas
1aaabc
1aaabq
1aaabt
1aaabw
1aaabz
1aaacd
1aaace
1aaaci
1aaack

#77
0aaaaq
0aaabc
0aaabq
0aaacd
0aaaci
0aaack

#78
1aaaaq
0aaaas
1aaabc
1aaabq
0aaabt
0aaabv
0aaabw
0aaaby
0aaabz
0aaacb
1aaacd
0aaace
0aaacg
1aaaci
1aaack

#79
0aaaaq
0aaabc
0aaabq
0aaacd
0aaaci
0aaack

#80
1aaaaa
1aaaab
1aaaaq
1aaabc
1aaabq
1aaacc
1aaacd
1aaach
1aaaci
1aaack
1aaacz
1aaada

#81
0aaaaq
0aaabc
0aaabq
0aaacd
0aaaci
0aaack

#82
1aaaaq
1aaabc
1aaabq
1aaacd
1aaaci
1aaack

#83
0aaaaq
0aaabc
0aaabq
0aaacd
0aaaci
0aaack

#84
1aaaaq
1aaabc
1aaabq
1aaacd
1aaaci
1aaack

#85
0aaaaq
0aaabc
0aaabq
0aaacd
0aaaci
0aaack

#86
1aaaaq
1aaabc
1aaabq
1aaabu
1aaabx
1aaaca
1aaacd
1aaacf
1aaaci
1aaack

#87
0aaaaq
0aaabc
0aaabq
0aaacd
0aaaci
0aaack

#88
1aaaaq
1aaabc
1aaabq
0aaabu
1aaabv
0aaabx
1aaaby
0aaaca
1aaacb
1aaacd
0aaacf
1aaacg
1aaaci
1aaack

#89
0aaaaq
0aaabc
0aaabq
0aaacd
0aaaci
0aaack

#90
0aaaaa
0aaaab
1aaaaq
1aaabc
1aaabq
0aaacc
1aaacd
0aaach
1aaaci
1aaack
0aaacz
0aaada

#91
0aaaaq
0aaabc
0aaabq
0aaacd
0aaaci
0aaack

#92
1aaaaq
1aaabc
1aaabq
1aaacd
1aaaci
1aaack

#93
0aaaaq
0aaabc
0aaabq
0aaacd
0aaaci
0aaack

#94
1aaaaq
1aaabc
1aaabq
1aaacd
1aaaci
1aaack

#95
0aaaaq
0aaabc
0aaabq
0aaacd
0aaaci
0aaack

#96
1aaaaq
1aaaas
1aaabc
1aaabq
1aaabt
1aaabw
1aaabz
1aaacd
1aaace
1aaaci
1aaack

#97
0aaaaq
0aaabc
0aaabq
0aaacd
0aaaci
0aaack

#98
1aaaaq
0aaaas
1aaabc
1aaabq
0aaabt
0aaabv
0aaabw
0aaaby
0aaabz
0aaacb
1aaacd
0aaace
0aaacg
1aaaci
1aaack

#99
0aaaaq
0aaabc
0aaabq
0aaacd
0aaaci
0aaack

#100
1aaaaa
1aaaab
1aaaaq
1aaabc
1aaabq
1aaacc
1aaacd
1aaach
1aaaci
1aaack
1aaacz
1aaada

#101
0aaaaq
0aaabc
0aaabq
0aaacd
0aaaci
0aaack

#102
1aaaaq
1aaabc
1aaabq
1aaacd
1aaaci
1aaack

#103
0aaaaq
0aaabc
0aaabq
0aaacd
0aaaci
0aaack

#104
1aaaaq
1aaabc
1aaabq
1aaacd
1aaaci
1aaack

#105
0aaaaq
0aaabc
0aaabq
0aaacd
0aaaci
0aaack

#106
1aaaaq
1aaabc
1aaabq
1aaabu
1aaabx
1aaaca
1aaacd
1aaacf
1aaaci
1aaack

#107
0aaaaq
0aaabc
0aaabq
0aaacd
0aaaci
0aaack

#108
1aaaaq
1aaabc
1aaabq
0aaabu
1aaabv
0aaabx
1aaaby
0aaaca
1aaacb
1aaacd
0aaacf
1aaacg
1aaaci
1aaack

#109
0aaaaq
0aaabc
0aaabq
0aaacd
0aaaci
0aaack

#110
0aaaaa
0aaaab
1aaaaq
1aaabc
1aaabq
0aaacc
1aaacd
0aaach
1aaaci
1aaack
0aaacz
0aaada

#111
0aaaaq
0aaabc
0aaabq
0aaacd
0aaaci
0aaack

#112
1aaaaq
1aaabc
1aaabq
1aaacd
1aaaci
1aaack

#113
0aaaaq
0aaabc
0aaabq
0aaacd
0aaaci
0aaack

#114
1aaaaq
1aaabc
1aaabq
1aaacd
1aaaci
1aaack

#115
0aaaaq
0aaabc
0aaabq
0aaacd
0aaaci
0aaack

#116
1aaaaq
1aaaas
1aaabc
1aaabq
1aaabt
1aaabw
1aaabz
1aaacd
1aaace
1aaaci
1aaack

#117
0aaaaq
0aaabc
0aaabq
0aaacd
0aaaci
0aaack

#118
1aaaaq
0aaaas
1aaabc
1aaabq
0aaabt
0aaabv
0aaabw
0aaaby
0aaabz
0aaacb
1aaacd
0aaace
0aaacg
1aaaci
1aaack

#119
0aaaaq
0aaabc
0aaabq
0aaacd
0aaaci
0aaack

#120
1aaaaa
1aaaab
1aaaaq
1aaabc
1aaabq
1aaacc
1aaacd
1aaach
1aaaci
1aaack
1aaacz
1aaada

#121
0aaaaq
0aaabc
0aaabq
0aaacd
0aaaci
0aaack

#122
1aaaaq
1aaabc
1aaabq
1aaacd
1aaaci
1aaack

#123
0aaaaq
0aaabc
0aaabq
0aaacd
0aaaci
0aaack

#124
1aaaaq
1aaabc
1aaabq
1aaacd
1aaaci
1aaack

#125
0aaaaq
0aaabc
0aaabq
0aaacd
0aaaci
0aaack

#126
1aaaaq
1aaabc
1aaabq
1aaabu
1aaabx
1aaaca
1aaacd
1aaacf
1aaaci
1aaack

#127
0aaaaq
0aaabc
0aaabq
0aaacd
0aaaci
0aaack

#128
1aaaaq
1aaabc
1aaabq
0aaabu
1aaabv
0aaabx
1aaaby
0aaaca
1aaacb
1aaacd
0aaacf
1aaacg
1aaaci
1aaack

#129
0aaaaq
0aaabc
0aaabq
0aaacd
0aaaci
0aaack

#130
0aaaaa
0aaaab
1aaaaq
1aaabc
1aaabq
0aaacc
1aaacd
0aaach
1aaaci
1aaack
0aaacz
0aaada

#131
0aaaaq
0aaabc
0aaabq
0aaacd
0aaaci
0aaack

#132
1aaaaq
1aaabc
1aaabq
1aaacd
1aaaci
1aaack

#133
0aaaaq
0aaabc
0aaabq
0aaacd
0aaaci
0aaack

#134
1aaaaq
1aaabc
1aaabq
1aaacd
1aaaci
1aaack

#135
0aaaaq
0aaabc
0aaabq
0aaacd
0aaaci
0aaack

#136
1aaaaq
1aaaas
1aaabc
1aaabq
1aaabt
1aaabw
1aaabz
1aaacd
1aaace
1aaaci
1aaack

#137
0aaaaq
0aaabc
0aaabq
0aaacd
0aaaci
0aaack

#138
1aaaaq
0aaaas
1aaabc
1aaabq
0aaabt
0aaabv
0aaabw
0aaaby
0aaabz
0aaacb
1aaacd
0aaace
0aaacg
1aaaci
1aaack

#139
0aaaaq
0aaabc
0aaabq
0aaacd
0aaaci
0aaack

#140
1aaaaa
1aaaab
1aaaaq
1aaabc
1aaabq
1aaacc
1aaacd
1aaach
1aaaci
1aaack
1aaacz
1aaada

#141
0aaaaq
0aaabc
0aaabq
0aaacd
0aaaci
0aaack

#142
1aaaaq
1aaabc
1aaabq
1aaacd
1aaaci
1aaack

#143
0aaaaq
0aaabc
0aaabq
0aaacd
0aaaci
0aaack

#144
1aaaaq
1aaabc
1aaabq
1aaacd
1aaaci
1aaack

#145
0aaaaq
0aaabc
0aaabq
0aaacd
0aaaci
0aaack

#146
1aaaaq
1aaabc
1aaabq
1aaabu
1aaabx
1aaaca
1aaacd
1aaacf
1aaaci
1aaack

#147
0aaaaq
0aaabc
0aaabq
0aaacd
0aaaci
0aaack

#148
1aaaaq
1aaabc
1aaabq
0aaabu
1aaabv
0aaabx
1aaaby
0aaaca
1aaacb
1aaacd
0aaacf
1aaacg
1aaaci
1aaack

#149
0aaaaq
0aaabc
0aaabq
0aaacd
0aaaci
0aaack

#150
0aaaaa
0aaaab
1aaaaq
1aaabc
1aaabq
0aaacc
1aaacd
0aaach
1aaaci
1aaack
0aaacz
0aaada

#151
0aaaaq
0aaabc
0aaabq
0aaacd
0aaaci
0aaack

#152
1aaaaq
1aaabc
1aaabq
1aaacd
1aaaci
1aaack

#153
0aaaaq
0aaabc
0aaabq
0aaacd
0aaaci
0aaack

#154
1aaaaq
1aaabc
1aaabq
1aaacd
1aaaci
1aaack

#155
0aaaaq
0aaabc
0aaabq
0aaacd
0aaaci
0aaack

#156
1aaaaq
1aaaas
1aaabc
1aaabq
1aaabt
1aaabw
1aaabz
1aaacd
1aaace
1aaaci
1aaack

#157
0aaaaq
0aaabc
0aaabq
0aaacd
0aaaci
0aaack

#158
1aaaaq
0aaaas
1aaabc
1aaabq
0aaabt
0aaabv
0aaabw
0aaaby
0aaabz
0aaacb
1aaacd
0aaace
0aaacg
1aaaci
1aaack

#159
0aaaaq
0aaabc
0aaabq
0aaacd
0aaaci
0aaack

#160
1aaaaa
1aaaab
1aaaaq
1aaabc
1aaabq
1aaacc
1aaacd
1aaach
1aaaci
1aaack
1aaacz
1aaada

#161
0aaaaq
0aaabc
0aaabq
0aaacd
0aaaci
0aaack

#162
1aaaaq
1aaabc
1aaabq
1aaacd
1aaaci
1aaack

#163
0aaaaq
0aaabc
0aaabq
0aaacd
0aaaci
0aaack

#164
1aaaaq
1aaabc
1aaabq
1aaacd
1aaaci
1aaack

#165
0aaaaq
0aaabc
0aaabq
0aaacd
0aaaci
0aaack

#166
1aaaaq
1aaabc
1aaabq
1aaabu
1aaabx
1aaaca
1aaacd
1aaacf
1aaaci
1aaack

#167
0aaaaq
0aaabc
0aaabq
0aaacd
0aaaci
0aaack

#168
1aaaaq
1aaabc
1aaabq
0aaabu
1aaabv
0aaabx
1aaaby
0aaaca
1aaacb
1aaacd
0aaacf
1aaacg
1aaaci
1aaack

#169
0aaaaq
0aaabc
0aaabq
0aaacd
0aaaci
0aaack

#170
0aaaaa
0aaaab
1aaaaq
1aaabc
1aaabq
0aaacc
1aaacd
0aaach
1aaaci
1aaack
0aaacz
0aaada

#171
0aaaaq
0aaabc
0aaabq
0aaacd
0aaaci
0aaack

#172
1aaaaq
1aaabc
1aaabq
1aaacd
1aaaci
1aaack

#173
0aaaaq
0aaabc
0aaabq
0aaacd
0aaaci
0aaack

#174
1aaaaq
1aaabc
1aaabq
1aaacd
1aaaci
1aaack

#175
0aaaaq
0aaabc
0aaabq
0aaacd
0aaaci
0aaack

#176
1aaaaq
1aaaas
1aaabc
1aaabq
1aaabt
1aaabw
1aaabz
1aaacd
1aaace
1aaaci
1aaack

#177
0aaaaq
0aaabc
0aaabq
0aaacd
0aaaci
0aaack

#178
1aaaaq
0aaaas
1aaabc
1aaabq
0aaabt
0aaabv
0aaabw
0aaaby
0aaabz
0aaacb
1aaacd
0aaace
0aaacg
1aaaci
1aaack

#179
0aaaaq
0aaabc
0aaabq
0aaacd
0aaaci
0aaack

#180
1aaaaa
1aaaab
1aaaaq
1aaabc
1aaabq
1aaacc
1aaacd
1aaach
1aaaci
1aaack
1aaacz
1aaada

#181
0aaaaq
0aaabc
0aaabq
0aaacd
0aaaci
0aaack

#182
1aaaaq
1aaabc
1aaabq
1aaacd
1aaaci
1aaack

#183
0aaaaq
0aaabc
0aaabq
0aaacd
0aaaci
0aaack

#184
1aaaaq
1aaabc
1aaabq
1aaacd
1aaaci
1aaack

#185
0aaaaq
0aaabc
0aaabq
0aaacd
0aaaci
0aaack

#186
1aaaaq
1aaabc
1aaabq
1aaabu
1aaabx
1aaaca
1aaacd
1aaacf
1aaaci
1aaack

#187
0aaaaq
0aaabc
0aaabq
0aaacd
0aaaci
0aaack

#188
1aaaaq
1aaabc
1aaabq
0aaabu
1aaabv
0aaabx
1aaaby
0aaaca
1aaacb
1aaacd
0aaacf
1aaacg
1aaaci
1aaack

#189
0aaaaq
0aaabc
0aaabq
0aaacd
0aaaci
0aaack

#190
0aaaaa
0aaaab
1aaaaq
1aaabc
1aaabq
0aaacc
1aaacd
0aaach
1aaaci
1aaack
0aaacz
0aaada

#191
0aaaaq
0aaabc
0aaabq
0aaacd
0aaaci
0aaack

#192
1aaaaq
1aaabc
1aaabq
1aaacd
1aaaci
1aaack

#193
0aaaaq
0aaabc
0aaabq
0aaacd
0aaaci
0aaack

#194
1aaaaq
1aaabc
1aaabq
1aaacd
1aaaci
1aaack

#195
0aaaaq
0aaabc
0aaabq
0aaacd
0aaaci
0aaack

#196
1aaaaq
1aaaas
1aaabc
1aaabq
1aaabt
1aaabw
1aaabz
1aaacd
1aaace
1aaaci
1aaack

#197
0aaaaq
0aaabc
0aaabq
0aaacd
0aaaci
0aaack

#198
1aaaaq
0aaaas
1aaabc
1aaabq
0aaabt
0aaabv
0aaabw
0aaaby
0aaabz
0aaacb
1aaacd
0aaace
0aaacg
1aaaci
1aaack

#199
0aaaaq
0aaabc
0aaabq
0aaacd
0aaaci
0aaack

#200
1aaaaa
1aaaab
1aaaaq
1aaabc
1aaabq
1aaacc
1aaacd
1aaach
1aaaci
1aaack
1aaacz
1aaada

#201
0aaaaq
0aaabc
0aaabq
0aaacd
0aaaci
0aaack

#202
1aaaaq
1aaabc
1aaabq
1aaacd
1aaaci
1aaack

#203
0aaaaq
0aaabc
0aaabq
0aaacd
0aaaci
0aaack

#204
1aaaaq
1aaabc
1aaabq
1aaacd
1aaaci
1aaack

#205
0aaaaq
0aaabc
0aaabq
0aaacd
0aaaci
0aaack

#206
1aaaaq
1aaabc
1aaabq
1aaabu
1aaabx
1aaaca
1aaacd
1aaacf
1aaaci
1aaack

#207
0aaaaq
0aaabc
0aaabq
0aaacd
0aaaci
0aaack

#208
1aaaaq
1aaabc
1aaabq
0aaabu
1aaabv
0aaabx
1aaaby
0aaaca
1aaacb
1aaacd
0aaacf
1aaacg
1aaaci
1aaack

#209
0aaaaq
0aaabc
0aaabq
0aaacd
0aaaci
0aaack

#210
0aaaaa
0aaaab
1aaaaq
1aaabc
1aaabq
0aaacc
1aaacd
0aaach
1aaaci
1aaack
0aaacz
0aaada

#211
0aaaaq
0aaabc
0aaabq
0aaacd
0aaaci
0aaack

#212
1aaaaq
1aaabc
1aaabq
1aaacd
1aaaci
1aaack

#213
0aaaaq
0aaabc
0aaabq
0aaacd
0aaaci
0aaack

#214
1aaaaq
1aaabc
1aaabq
1aaacd
1aaaci
1aaack

#215
0aaaaq
0aaabc
0aaabq
0aaacd
0aaaci
0aaack

#216
1aaaaq
1aaaas
1aaabc
1aaabq
1aaabt
1aaabw
1aaabz
1aaacd
1aaace
1aaaci
1aaack

#217
0aaaaq
0aaabc
0aaabq
0aaacd
0aaaci
0aaack

#218
1aaaaq
0aaaas
1aaabc
1aaabq
0aaabt
0aaabv
0aaabw
0aaaby
0aaabz
0aaacb
1aaacd
0aaace
0aaacg
1aaaci
1aaack

#219
0aaaaq
0aaabc
0aaabq
0aaacd
0aaaci
0aaack

#220
1aaaaa
1aaaab
1aaaaq
1aaabc
1aaabq
1aaacc
1aaacd
1aaach
1aaaci
1aaack
1aaacz
1aaada

#221
0aaaaq
0aaabc
0aaabq
0aaacd
0aaaci
0aaack

#222
1aaaaq
1aaabc
1aaabq
1aaacd
1aaaci
1aaack

#223
0aaaaq
0aaabc
0aaabq
0aaacd
0aaaci
0aaack

#224
1aaaaq
1aaabc
1aaabq
1aaacd
1aaaci
1aaack

#225
0aaaaq
0aaabc
0aaabq
0aaacd
0aaaci
0aaack

#226
1aaaaq
1aaabc
1aaabq
1aaabu
1aaabx
1aaaca
1aaacd
1aaacf
1aaaci
1aaack

#227
0aaaaq
0aaabc
0aaabq
0aaacd
0aaaci
0aaack

#228
1aaaaq
1aaabc
1aaabq
0aaabu
1aaabv
0aaabx
1aaaby
0aaaca
1aaacb
1aaacd
0aaacf
1aaacg
1aaaci
1aaack

#229
0aaaaq
0aaabc
0aaabq
0aaacd
0aaaci
0aaack

#230
0aaaaa
0aaaab
1aaaaq
1aaabc
1aaabq
0aaacc
1aaacd
0aaach
1aaaci
1aaack
0aaacz
0aaada

#231
0aaaaq
0aaabc
0aaabq
0aaacd
0aaaci
0aaack

#232
1aaaaq
1aaabc
1aaabq
1aaacd
1aaaci
1aaack

#233
0aaaaq
0aaabc
0aaabq
0aaacd
0aaaci
0aaack

#234
1aaaaq
1aaabc
1aaabq
1aaacd
1aaaci
1aaack

#235
0aaaaq
0aaabc
0aaabq
0aaacd
0aaaci
0aaack

#236
1aaaaq
1aaaas
1aaabc
1aaabq
1aaabt
1aaabw
1aaabz
1aaacd
1aaace
1aaaci
1aaack

#237
0aaaaq
0aaabc
0aaabq
0aaacd
0aaaci
0aaack

#238
1aaaaq
0aaaas
1aaabc
1aaabq
0aaabt
0aaabv
0aaabw
0aaaby
0aaabz
0aaacb
1aaacd
0aaace
0aaacg
1aaaci
1aaack

#239
0aaaaq
0aaabc
0aaabq
0aaacd
0aaaci
0aaack

#240
1aaaaa
1aaaab
1aaaaq
1aaabc
1aaabq
1aaacc
1aaacd
1aaach
1aaaci
1aaack
1aaacz
1aaada

#241
0aaaaq
0aaabc
0aaabq
0aaacd
0aaaci
0aaack

#242
1aaaaq
1aaabc
1aaabq
1aaacd
1aaaci
1aaack

#243
0aaaaq
0aaabc
0aaabq
0aaacd
0aaaci
0aaack

#244
1aaaaq
1aaabc
1aaabq
1aaacd
1aaaci
1aaack

#245
0aaaaq
0aaabc
0aaabq
0aaacd
0aaaci
0aaack

#246
1aaaaq
1aaabc
1aaabq
1aaabu
1aaabx
1aaaca
1aaacd
1aaacf
1aaaci
1aaack

