fp_i2c_to_wb_fsm/fsm_.vcd
$date
     Jun 23, 2018       16:55:43
$end

$version
 SystemC 2.3.2-Accellera --- Jun 11 2018 14:13:11
$end

$timescale
     1 ns
$end

$scope module SystemC $end
$var wire    1  aaaaa  i2c_data_rise       $end
$var wire    1  aaaab  i2c_data_fall       $end
$var wire    1  aaaac  i2c_clk       $end
$var wire    1  aaaad  wb_rst_i       $end
$var wire    1  aaaae  wb_clk_i       $end
$var wire    8  aaaaf  state_out [7:0]  $end
$var wire    1  aaaag  i2c_clk_fall       $end
$var wire    1  aaaah  i2c_clk_rise       $end
$var wire    1  aaaai  i2c_ack_done       $end
$var wire    1  aaaaj  i2c_ack_out       $end
$var wire    1  aaaak  i2c_data       $end
$var wire    1  aaaal  i2c_r_w_bit       $end
$var wire    1  aaaam  tip_addr_ack       $end
$var wire    1  aaaan  tip_addr_byte       $end
$var wire    1  aaaao  tip_read_byte       $end
$var wire    1  aaaap  tip_write_byte       $end
$var wire    1  aaaaq  tip_wr_ack       $end
$var wire    1  aaaar  tip_rd_ack       $end
$var wire    1  aaaas  i2c_error       $end
$upscope $end
$enddefinitions  $end

$comment
All initial values are dumped below at time 0 sec = 0 timescale units.
$end

$dumpvars
0aaaaa
0aaaab
1aaaac
1aaaad
1aaaae
b1 aaaaf
0aaaag
0aaaah
0aaaai
0aaaaj
0aaaak
0aaaal
0aaaam
0aaaan
0aaaao
0aaaap
0aaaaq
0aaaar
0aaaas
$end

#1
0aaaae

#2
1aaaae

#3
0aaaae

#4
1aaaae

#5
0aaaae

#6
1aaaae

#7
0aaaae

#8
1aaaae

#9
0aaaae

#10
1aaaab
0aaaad
1aaaae

#11
0aaaae

#12
1aaaae
b10 aaaaf
1aaaan
1aaaap

#13
0aaaae

#14
1aaaae

#15
0aaaae

#16
1aaaae

#17
0aaaae

#18
1aaaae

#19
0aaaae

#20
1aaaae

#21
0aaaae

#22
1aaaae

#23
0aaaae

#24
1aaaae

#25
0aaaae

#26
1aaaae

#27
0aaaae

#28
1aaaae

#29
0aaaae

#30
1aaaae

#31
0aaaae

#32
1aaaae

#33
0aaaae

#34
1aaaae

#35
0aaaae

#36
1aaaae

#37
0aaaae

#38
1aaaae

#39
0aaaae

#40
0aaaab
1aaaae
1aaaah

#41
0aaaae

#42
1aaaae

#43
0aaaae

#44
1aaaae

#45
0aaaae

#46
1aaaae

#47
0aaaae

#48
1aaaae

#49
0aaaae

#50
1aaaae

#51
0aaaae

#52
1aaaae

#53
0aaaae

#54
1aaaae

#55
0aaaae

#56
1aaaae

#57
0aaaae

#58
1aaaae

#59
0aaaae

#60
1aaaae

#61
0aaaae

#62
1aaaae

#63
0aaaae

#64
1aaaae

#65
0aaaae

#66
1aaaae

#67
0aaaae

#68
1aaaae

#69
0aaaae

#70
1aaaae
1aaaag

#71
0aaaae

#72
1aaaae

#73
0aaaae

#74
1aaaae

#75
0aaaae

#76
1aaaae
b100 aaaaf
1aaaam
0aaaan
0aaaap
1aaaaq

#77
0aaaae

#78
1aaaae

#79
0aaaae

#80
1aaaae

#81
0aaaae

#82
1aaaae

#83
0aaaae

#84
1aaaae

#85
0aaaae

#86
1aaaae

#87
0aaaae

#88
1aaaae

#89
0aaaae

#90
1aaaae
1aaaai

#91
0aaaae

#92
1aaaae
b1000 aaaaf
0aaaam
1aaaap
0aaaaq

#93
0aaaae

#94
1aaaae

#95
0aaaae

#96
1aaaae

#97
0aaaae

#98
1aaaae

#99
0aaaae

#100
1aaaae

#101
0aaaae

#102
1aaaae

#103
0aaaae

#104
1aaaae

#105
0aaaae

#106
1aaaae

#107
0aaaae

#108
1aaaae

#109
0aaaae

#110
1aaaae
0aaaai

#111
0aaaae

#112
1aaaae

#113
0aaaae

#114
1aaaae

#115
0aaaae

#116
1aaaae
b10000 aaaaf
0aaaap
1aaaaq

#117
0aaaae

#118
1aaaae

#119
0aaaae

#120
1aaaae

#121
0aaaae

#122
1aaaae

#123
0aaaae

#124
1aaaae

#125
0aaaae

#126
1aaaae

#127
0aaaae

#128
1aaaae

#129
0aaaae

#130
1aaaae
1aaaai

#131
0aaaae

#132
1aaaae
b1000 aaaaf
1aaaap
0aaaaq

#133
0aaaae

#134
1aaaae

#135
0aaaae

#136
1aaaae

#137
0aaaae

#138
1aaaae

#139
0aaaae

#140
1aaaae

#141
0aaaae

#142
1aaaae

#143
0aaaae

#144
1aaaae

#145
0aaaae

#146
1aaaae

#147
0aaaae

#148
1aaaae

#149
0aaaae

#150
1aaaaa
1aaaae
0aaaah
0aaaai

#151
0aaaae

#152
1aaaae
b1 aaaaf
0aaaap

