Verilog/i2c_to_wb.vcd
$date
	Fri Jun 15 20:09:28 2018
$end
$version
	Icarus Verilog
$end
$timescale
	1ns
$end
$scope module tb_top $end
$var reg 1 ! tb_clk $end
$var reg 1 " tb_rst $end
$scope module dut $end
$var wire 1 # i2c_clk $end
$var wire 1 $ i2c_clk_oe $end
$var wire 1 % i2c_clk_out $end
$var wire 1 & i2c_data $end
$var wire 1 ' i2c_data_oe $end
$var wire 1 ( i2c_data_out $end
$var wire 1 ) tb_clk $end
$var wire 1 * tb_rst $end
$var wire 1 + wb_ack_i $end
$var wire 8 , wb_addr_o [7:0] $end
$var wire 1 - wb_cyc_o $end
$var wire 32 . wb_data_i [31:0] $end
$var wire 32 / wb_data_o [31:0] $end
$var wire 1 0 wb_err_i $end
$var wire 1 1 wb_rty_i $end
$var wire 4 2 wb_sel_o [3:0] $end
$var wire 1 3 wb_stb_o $end
$var wire 1 4 wb_we_o $end
$scope module i2c $end
$var wire 1 # i2c_clk $end
$var wire 1 5 i2c_clk_in $end
$var wire 1 & i2c_data $end
$var wire 1 6 i2c_data_in $end
$var reg 1 7 i2c_ack_in $end
$var reg 8 8 i2c_buffer_in [7:0] $end
$var reg 1 9 i2c_clk_oe $end
$var reg 1 : i2c_clk_out $end
$var reg 1 ; i2c_data_oe $end
$var reg 1 < i2c_data_out $end
$var reg 1 = start_r $end
$var reg 1 > write_byte_r $end
$scope task read_bit $end
$var reg 4 ? bit [3:0] $end
$upscope $end
$scope task read_byte $end
$var reg 1 @ ack $end
$upscope $end
$scope task start $end
$upscope $end
$scope task stop $end
$upscope $end
$scope task write_bit $end
$var reg 1 A bit $end
$upscope $end
$scope task write_byte $end
$var reg 8 B data [7:0] $end
$upscope $end
$upscope $end
$scope module i_i2c_to_wb_top $end
$var wire 1 C gf_i2c_clk_in $end
$var wire 1 D gf_i2c_clk_in_fall $end
$var wire 1 E gf_i2c_clk_in_rise $end
$var wire 1 F gf_i2c_data_in $end
$var wire 1 G gf_i2c_data_in_fall $end
$var wire 1 H gf_i2c_data_in_rise $end
$var wire 1 I i2c_ack_done $end
$var wire 1 J i2c_ack_out $end
$var wire 8 K i2c_byte_out [7:0] $end
$var wire 1 # i2c_clk_in $end
$var wire 1 $ i2c_clk_oe $end
$var wire 1 % i2c_clk_out $end
$var wire 1 & i2c_data_in $end
$var wire 1 ' i2c_data_oe $end
$var wire 1 ( i2c_data_out $end
$var wire 1 L i2c_parallel_load $end
$var wire 1 M serial_out $end
$var wire 1 N tip_addr_ack $end
$var wire 1 O tip_addr_byte $end
$var wire 1 P tip_rd_ack $end
$var wire 1 Q tip_read_byte $end
$var wire 1 R tip_wr_ack $end
$var wire 1 S tip_write_byte $end
$var wire 1 + wb_ack_i $end
$var wire 8 T wb_addr_o [7:0] $end
$var wire 1 ) wb_clk_i $end
$var wire 1 - wb_cyc_o $end
$var wire 32 U wb_data_i [31:0] $end
$var wire 32 V wb_data_o [31:0] $end
$var wire 1 0 wb_err_i $end
$var wire 1 * wb_rst_i $end
$var wire 1 1 wb_rty_i $end
$var wire 4 W wb_sel_o [3:0] $end
$var wire 1 3 wb_stb_o $end
$var wire 1 4 wb_we_o $end
$var reg 9 X i2c_data_in_r [8:0] $end
$var reg 1 Y i2c_data_mux_select_r $end
$var reg 1 Z i2c_data_oe_r $end
$scope module i_gf_i2c_data_in $end
$var wire 1 [ all_hi $end
$var wire 1 \ all_lo $end
$var wire 1 ) clk $end
$var wire 1 G fall $end
$var wire 1 & in $end
$var wire 1 ] out_en $end
$var wire 1 H rise $end
$var wire 1 * rst $end
$var reg 3 ^ buffer [2:0] $end
$var reg 1 _ in_reg $end
$var reg 1 ` out $end
$upscope $end
$scope module i_gf_i2c_clk_in $end
$var wire 1 a all_hi $end
$var wire 1 b all_lo $end
$var wire 1 ) clk $end
$var wire 1 D fall $end
$var wire 1 # in $end
$var wire 1 c out_en $end
$var wire 1 E rise $end
$var wire 1 * rst $end
$var reg 3 d buffer [2:0] $end
$var reg 1 e in_reg $end
$var reg 1 f out $end
$upscope $end
$scope module i_i2c_to_wb_fsm $end
$var wire 1 I i2c_ack_done $end
$var wire 1 J i2c_ack_out $end
$var wire 1 C i2c_clk $end
$var wire 1 D i2c_clk_fall $end
$var wire 1 E i2c_clk_rise $end
$var wire 1 F i2c_data $end
$var wire 1 G i2c_data_fall $end
$var wire 1 H i2c_data_rise $end
$var wire 1 g i2c_error $end
$var wire 1 h i2c_r_w_bit $end
$var wire 1 i i2c_start_error $end
$var wire 1 j start_detected $end
$var wire 8 k state_out [7:0] $end
$var wire 1 l stop_detected $end
$var wire 1 m tip_ack $end
$var wire 1 N tip_addr_ack $end
$var wire 1 O tip_addr_byte $end
$var wire 1 P tip_rd_ack $end
$var wire 1 Q tip_read_byte $end
$var wire 1 R tip_wr_ack $end
$var wire 1 S tip_write_byte $end
$var wire 1 ) wb_clk_i $end
$var wire 1 * wb_rst_i $end
$var wire 1 n xmt_byte_done $end
$var reg 4 o bit_count [3:0] $end
$var reg 8 p next_state [7:0] $end
$var reg 8 q state [7:0] $end
$upscope $end
$scope module i_i2c_to_wb_config $end
$var wire 1 J i2c_ack_out $end
$var wire 8 r i2c_byte_in [7:0] $end
$var wire 1 N tip_addr_ack $end
$var wire 1 ) wb_clk_i $end
$var wire 1 * wb_rst_i $end
$var reg 1 s i2c_addr_ack_out_r $end
$upscope $end
$scope module i_i2c_to_wb_if $end
$var wire 1 I i2c_ack_done $end
$var wire 8 t i2c_byte_in [7:0] $end
$var wire 1 F i2c_data $end
$var wire 1 L i2c_parallel_load $end
$var wire 1 u i2c_r_w_bit $end
$var wire 1 N tip_addr_ack $end
$var wire 1 P tip_rd_ack $end
$var wire 1 R tip_wr_ack $end
$var wire 1 + wb_ack_i $end
$var wire 8 v wb_addr_o [7:0] $end
$var wire 1 ) wb_clk_i $end
$var wire 1 - wb_cyc_o $end
$var wire 32 w wb_data_i [31:0] $end
$var wire 32 x wb_data_o [31:0] $end
$var wire 1 0 wb_err_i $end
$var wire 1 * wb_rst_i $end
$var wire 1 1 wb_rty_i $end
$var wire 1 3 wb_stb_o $end
$var wire 1 4 wb_we_o $end
$var reg 8 y i2c_byte_out [7:0] $end
$var reg 8 z i2c_offset_r [7:0] $end
$var reg 5 { next_state [4:0] $end
$var reg 5 | state [4:0] $end
$var reg 4 } wb_sel_o [3:0] $end
$upscope $end
$upscope $end
$scope module i_wb_slave_model $end
$var wire 1 + ack_o $end
$var wire 8 ~ adr_i [7:0] $end
$var wire 1 ) clk_i $end
$var wire 1 - cyc_i $end
$var wire 32 !" dat_i [31:0] $end
$var wire 32 "" dat_o [31:0] $end
$var wire 1 0 err_o $end
$var wire 1 * rst_i $end
$var wire 1 1 rty_o $end
$var wire 4 #" sel_i [3:0] $end
$var wire 1 3 stb_i $end
$var wire 1 4 we_i $end
$var reg 1 $" ack_delayed $end
$scope begin genblk1 $end
$upscope $end
$upscope $end
$scope module i_g1 $end
$var wire 1 & out $end
$var reg 1 %" glitch $end
$var reg 1 &" glitch_en $end
$var reg 1 '" glitch_generator_en $end
$scope begin glitch_loop $end
$upscope $end
$scope task disable_glitch_generator $end
$upscope $end
$scope task enable_glitch_generator $end
$upscope $end
$upscope $end
$scope module i_g2 $end
$var wire 1 # out $end
$var reg 1 (" glitch $end
$var reg 1 )" glitch_en $end
$var reg 1 *" glitch_generator_en $end
$scope begin glitch_loop $end
$upscope $end
$scope task disable_glitch_generator $end
$upscope $end
$scope task enable_glitch_generator $end
$upscope $end
$upscope $end
$upscope $end
$scope module test $end
$var wire 1 ) tb_clk $end
$var wire 1 * tb_rst $end
$scope task run_the_test $end
$upscope $end
$upscope $end
$upscope $end
$enddefinitions $end
#0
$dumpvars
0*"
0)"
0("
0'"
0&"
0%"
0$"
bx #"
bx ""
bx !"
bx ~
bx }
b1 |
b1 {
bx z
bx y
bx x
bx w
bx v
xu
bx t
1s
bx r
b1 q
b1 p
b1111 o
0n
0m
xl
b1 k
xj
0i
xh
0g
xf
1e
bx d
xc
0b
xa
x`
x_
bx ^
x]
x\
x[
0Z
xY
bx X
bx W
bx V
bx U
bx T
0S
0R
0Q
0P
0O
0N
xM
0L
bx K
0J
0I
xH
xG
xF
xE
0D
xC
bx B
xA
x@
bx ?
0>
0=
1<
0;
1:
09
bx 8
x7
16
15
04
03
bx 2
01
00
bx /
bx .
0-
bx ,
0+
1*
1)
x(
0'
1&
1%
0$
1#
1"
1!
$end
#21
0!
0)
#42
0j
0G
bx1 d
1_
0\
1!
1)
#56
0"
0*
#63
0!
0)
#84
bx1 ^
bx11 d
1!
1)
#105
0!
0)
#126
1c
b111 d
1a
bx11 ^
1=
1!
1)
#147
0!
0)
#168
1]
0E
b111 ^
1[
1f
1C
1!
1)
#189
0!
0)
#210
0l
0H
1`
1F
1!
1)
#231
0!
0)
#252
1!
1)
#273
0!
0)
#294
1!
1)
#315
0!
0)
#336
1!
1)
#357
0!
0)
#378
1!
1)
#399
0!
0)
#420
1!
1)
#441
0!
0)
#462
1!
1)
#483
0!
0)
#504
1!
1)
#525
0!
0)
#546
1!
1)
#567
0!
0)
#588
1!
1)
#609
0!
0)
#630
1!
1)
#651
0!
0)
#672
1!
1)
#693
0!
0)
#714
1!
1)
#735
0!
0)
#756
1!
1)
#777
0!
0)
#798
1!
1)
#819
0!
0)
#840
1!
1)
#861
0!
0)
#882
1!
1)
#903
0!
0)
#924
1!
1)
#945
0!
0)
#966
1!
1)
#987
0!
0)
#1008
1!
1)
#1029
0!
0)
#1050
1!
1)
#1071
0!
0)
#1092
1!
1)
#1113
0!
0)
#1134
1!
1)
#1155
0!
0)
#1176
1!
1)
#1197
0!
0)
#1218
1!
1)
#1239
0!
0)
#1260
1!
1)
#1281
0!
0)
#1302
1!
1)
#1323
0!
0)
#1344
1!
1)
#1365
0!
0)
#1386
1!
1)
#1407
0!
0)
#1428
1!
1)
#1449
0!
0)
#1470
1!
1)
#1491
0!
0)
#1512
1!
1)
#1533
0!
0)
#1554
1!
1)
#1575
0!
0)
#1596
1!
1)
#1617
0!
0)
#1638
1!
1)
#1659
0!
0)
#1680
1!
1)
#1701
0!
0)
#1722
1!
1)
#1743
0!
0)
#1764
1!
1)
#1785
0!
0)
#1806
1!
1)
#1827
0!
0)
#1848
1!
1)
#1869
0!
0)
#1890
1!
1)
#1911
0!
0)
#1932
1!
1)
#1953
0!
0)
#1974
1!
1)
#1995
0!
0)
#2016
1!
1)
#2037
0!
0)
#2058
1!
1)
#2079
0!
0)
#2100
1!
1)
#2121
0!
0)
#2142
1!
1)
#2163
0!
0)
#2184
1!
1)
#2205
0!
0)
#2226
1!
1)
#2247
0!
0)
#2268
1!
1)
#2289
0!
0)
#2310
1!
1)
#2331
0!
0)
#2352
1!
1)
#2373
0!
0)
#2394
1!
1)
#2415
0!
0)
#2436
1!
1)
#2457
0!
0)
#2478
1!
1)
#2499
0!
0)
#2520
1!
1)
#2541
0!
0)
#2562
1!
1)
#2583
0!
0)
#2604
1!
1)
#2625
0!
0)
#2646
1!
1)
#2667
0!
0)
#2688
1!
1)
#2709
0!
0)
#2730
1!
1)
#2751
0!
0)
#2772
1!
1)
#2793
0!
0)
#2814
1!
1)
#2835
0!
0)
#2856
1!
1)
#2877
0!
0)
#2898
1!
1)
#2919
0!
0)
#2940
1!
1)
#2961
0!
0)
#2982
1!
1)
#3003
0!
0)
#3024
1!
1)
#3045
0!
0)
#3066
1!
1)
#3087
0!
0)
#3108
1!
1)
#3129
0!
0)
#3150
1!
1)
#3171
0!
0)
#3192
1!
1)
#3213
0!
0)
#3234
1!
1)
#3255
0!
0)
#3276
1!
1)
#3297
0!
0)
#3318
1!
1)
#3339
0!
0)
#3360
1!
1)
#3381
0!
0)
#3402
1!
1)
#3423
0!
0)
#3444
1!
1)
#3465
0!
0)
#3486
1!
1)
#3507
0!
0)
#3528
1!
1)
#3549
0!
0)
#3570
1!
1)
#3591
0!
0)
#3612
1!
1)
#3633
0!
0)
#3654
1!
1)
#3675
0!
0)
#3696
1!
1)
#3717
0!
0)
#3738
1!
1)
#3759
0!
0)
#3780
1!
1)
#3801
0!
0)
#3822
1!
1)
#3843
0!
0)
#3864
1!
1)
#3885
0!
0)
#3906
1!
1)
#3927
0!
0)
#3948
1!
1)
#3969
0!
0)
#3990
1!
1)
#4011
0!
0)
#4032
1!
1)
#4053
0!
0)
#4074
1!
1)
#4095
0!
0)
#4116
1!
1)
#4137
0!
0)
#4158
1!
1)
#4179
0!
0)
#4200
1!
1)
#4221
0!
0)
#4242
1!
1)
#4263
0!
0)
#4284
1!
1)
#4305
0!
0)
#4326
1!
1)
#4347
0!
0)
#4368
1!
1)
#4389
0!
0)
#4410
1!
1)
#4431
0!
0)
#4452
1!
1)
#4473
0!
0)
#4494
1!
1)
#4515
0!
0)
#4536
1!
1)
#4557
0!
0)
#4578
1!
1)
#4599
0!
0)
#4620
1!
1)
#4641
0!
0)
#4662
1!
1)
#4683
0!
0)
#4704
1!
1)
#4725
0!
0)
#4746
1!
1)
#4767
0!
0)
#4788
1!
1)
#4809
0!
0)
#4826
1#
19
#4830
1!
1)
#4851
0!
0)
#4872
1!
1)
#4893
0!
0)
#4914
1!
1)
#4935
0!
0)
#4956
1!
1)
#4977
0!
0)
#4998
1!
1)
#5019
0!
0)
#5040
1!
1)
#5061
0!
0)
#5082
1!
1)
#5103
0!
0)
#5124
1!
1)
#5145
0!
0)
#5166
1!
1)
#5187
0!
0)
#5208
1!
1)
#5229
0!
0)
#5250
1!
1)
#5271
0!
0)
#5292
1!
1)
#5313
0!
0)
#5334
1!
1)
#5355
0!
0)
#5376
1!
1)
#5397
0!
0)
#5418
1!
1)
#5439
0!
0)
#5460
1!
1)
#5481
0!
0)
#5502
1!
1)
#5523
0!
0)
#5544
1!
1)
#5565
0!
0)
#5586
1!
1)
#5607
0!
0)
#5628
1!
1)
#5649
0!
0)
#5670
1!
1)
#5691
0!
0)
#5712
1!
1)
#5733
0!
0)
#5754
1!
1)
#5775
0!
0)
#5796
1!
1)
#5817
0!
0)
#5838
1!
1)
#5859
0!
0)
#5880
1!
1)
#5901
0!
0)
#5922
1!
1)
#5943
0!
0)
#5964
1!
1)
#5985
0!
0)
#6006
1!
1)
#6027
0!
0)
#6048
1!
1)
#6069
0!
0)
#6090
1!
1)
#6111
0!
0)
#6132
1!
1)
#6153
0!
0)
#6174
1!
1)
#6195
0!
0)
#6216
1!
1)
#6237
0!
0)
#6258
1!
1)
#6279
0!
0)
#6300
1!
1)
#6321
0!
0)
#6342
1!
1)
#6363
0!
0)
#6384
1!
1)
#6405
0!
0)
#6426
1!
1)
#6447
0!
0)
#6468
1!
1)
#6489
0!
0)
#6510
1!
1)
#6531
0!
0)
#6552
1!
1)
#6573
0!
0)
#6594
1!
1)
#6615
0!
0)
#6636
1!
1)
#6657
0!
0)
#6678
1!
1)
#6699
0!
0)
#6720
1!
1)
#6741
0!
0)
#6762
1!
1)
#6783
0!
0)
#6804
1!
1)
#6825
0!
0)
#6846
1!
1)
#6867
0!
0)
#6888
1!
1)
#6909
0!
0)
#6930
1!
1)
#6951
0!
0)
#6972
1!
1)
#6993
0!
0)
#7014
1!
1)
#7035
0!
0)
#7056
1!
1)
#7077
0!
0)
#7098
1!
1)
#7119
0!
0)
#7140
1!
1)
#7161
0!
0)
#7182
1!
1)
#7203
0!
0)
#7224
1!
1)
#7245
0!
0)
#7266
1!
1)
#7287
0!
0)
#7308
1!
1)
#7329
0!
0)
#7350
1!
1)
#7371
0!
0)
#7392
1!
1)
#7413
0!
0)
#7434
1!
1)
#7455
0!
0)
#7476
1!
1)
#7497
0!
0)
#7518
1!
1)
#7539
0!
0)
#7560
1!
1)
#7581
0!
0)
#7602
1!
1)
#7623
0!
0)
#7644
1!
1)
#7665
0!
0)
#7686
1!
1)
#7707
0!
0)
#7728
1!
1)
#7749
0!
0)
#7770
1!
1)
#7791
0!
0)
#7812
1!
1)
#7833
0!
0)
#7854
1!
1)
#7875
0!
0)
#7896
1!
1)
#7917
0!
0)
#7938
1!
1)
#7959
0!
0)
#7980
1!
1)
#8001
0!
0)
#8022
1!
1)
#8043
0!
0)
#8064
1!
1)
#8085
0!
0)
#8106
1!
1)
#8127
0!
0)
#8148
1!
1)
#8169
0!
0)
#8190
1!
1)
#8211
0!
0)
#8232
1!
1)
#8253
0!
0)
#8274
1!
1)
#8295
0!
0)
#8316
1!
1)
#8337
0!
0)
#8358
1!
1)
#8379
0!
0)
#8400
1!
1)
#8421
0!
0)
#8442
1!
1)
#8463
0!
0)
#8484
1!
1)
#8505
0!
0)
#8526
1!
1)
#8547
0!
0)
#8568
1!
1)
#8589
0!
0)
#8610
1!
1)
#8631
0!
0)
#8652
1!
1)
#8673
0!
0)
#8694
1!
1)
#8715
0!
0)
#8736
1!
1)
#8757
0!
0)
#8778
1!
1)
#8799
0!
0)
#8820
1!
1)
#8841
0!
0)
#8862
1!
1)
#8883
0!
0)
#8904
1!
1)
#8925
0!
0)
#8946
1!
1)
#8967
0!
0)
#8988
1!
1)
#9009
0!
0)
#9030
1!
1)
#9051
0!
0)
#9072
1!
1)
#9093
0!
0)
#9114
1!
1)
#9135
0!
0)
#9156
1!
1)
#9177
0!
0)
#9198
1!
1)
#9219
0!
0)
#9240
1!
1)
#9261
0!
0)
#9282
1!
1)
#9303
0!
0)
#9324
1!
1)
#9345
0!
0)
#9366
1!
1)
#9387
0!
0)
#9408
1!
1)
#9429
0!
0)
#9450
1!
1)
#9471
0!
0)
#9492
1!
1)
#9513
0!
0)
#9526
0&
06
1>
b11110001 B
0=
1;
0<
#9534
0]
0_
0[
1!
1)
#9555
0!
0)
#9576
b110 ^
1!
1)
#9597
0!
0)
#9618
b100 ^
1!
1)
#9639
0!
0)
#9660
b10 p
1j
1]
1G
b0 ^
1\
1!
1)
#9681
0!
0)
#9702
0j
0g
0G
0i
1S
0`
0F
b10 q
1O
b10 k
1!
1)
