i2c_to_wb_config/i2c_to_wb_config.vcd
$date
     Jun 22, 2018       00:38:15
$end

$version
 SystemC 2.3.2-Accellera --- Jun 17 2018 22:27:56
$end

$timescale
     1 ns
$end

$scope module SystemC $end
$var wire    8  aaaaa  i2c_byte_in [7:0]  $end
$var wire    1  aaaab  tip_addr_ack       $end
$var wire    1  aaaac  i2c_ack_out       $end
$var wire    1  aaaad  wb_clk_i       $end
$var wire    1  aaaae  wb_rst_i       $end
$upscope $end
$enddefinitions  $end

$comment
All initial values are dumped below at time 0 sec = 0 timescale units.
$end

$dumpvars
b0 aaaaa
0aaaab
0aaaac
1aaaad
0aaaae
$end

#1
0aaaad

#2
1aaaad

#3
0aaaad

#4
1aaaad

#5
0aaaad

#6
1aaaad

#7
0aaaad

#8
1aaaad

#9
0aaaad

#10
b1 aaaaa
1aaaad

#11
0aaaad

#12
1aaaad

#13
0aaaad

#14
1aaaad

#15
0aaaad

#16
1aaaad

#17
0aaaad

#18
1aaaad

#19
0aaaad

#20
b0X aaaaa
1aaaad

#21
0aaaad

#22
1aaaad

#23
0aaaad

#24
1aaaad

#25
0aaaad

#26
1aaaad

#27
0aaaad

#28
1aaaad

#29
0aaaad

#30
b0Z aaaaa
1aaaad

#31
0aaaad

#32
1aaaad

#33
0aaaad

#34
1aaaad

#35
0aaaad

#36
1aaaad

#37
0aaaad

#38
1aaaad

#39
0aaaad

#40
b11110000 aaaaa
1aaaad

#41
0aaaad

#42
1aaaad

#43
0aaaad

#44
1aaaad

#45
0aaaad

#46
1aaaad

#47
0aaaad

#48
1aaaad

#49
0aaaad

#50
b11110001 aaaaa
1aaaad

#51
0aaaad

#52
1aaaad

#53
0aaaad

#54
1aaaad

#55
0aaaad

#56
1aaaad

#57
0aaaad

#58
1aaaad

#59
0aaaad

#60
b1111000X aaaaa
1aaaad

#61
0aaaad

#62
1aaaad

#63
0aaaad

#64
1aaaad

#65
0aaaad

#66
1aaaad

#67
0aaaad

#68
1aaaad

#69
0aaaad

#70
b1111000Z aaaaa
1aaaad

#71
0aaaad

#72
1aaaad

#73
0aaaad

#74
1aaaad

#75
0aaaad

#76
1aaaad

#77
0aaaad

#78
1aaaad

#79
0aaaad

#80
b11111111 aaaaa
1aaaad

#81
0aaaad

#82
1aaaad

#83
0aaaad

#84
1aaaad

#85
0aaaad

#86
1aaaad

#87
0aaaad

#88
1aaaad

#89
0aaaad

#90
bXXXXXXXX aaaaa
1aaaad

#91
0aaaad

#92
1aaaad

#93
0aaaad

#94
1aaaad

#95
0aaaad

#96
1aaaad

#97
0aaaad

#98
1aaaad

#99
0aaaad

#100
bZZZZZZZZ aaaaa
1aaaad

#101
0aaaad

#102
1aaaad

#103
0aaaad

#104
1aaaad

#105
0aaaad

#106
1aaaad

#107
0aaaad

#108
1aaaad

#109
0aaaad

#110
bXXXX0000 aaaaa
1aaaad

#111
0aaaad

#112
1aaaad

#113
0aaaad

#114
1aaaad

#115
0aaaad

#116
1aaaad

#117
0aaaad

#118
1aaaad

#119
0aaaad

#120
b0XXXX aaaaa
1aaaad

#121
0aaaad

#122
1aaaad

#123
0aaaad

#124
1aaaad

#125
0aaaad

#126
1aaaad

#127
0aaaad

#128
1aaaad

#129
0aaaad

#130
bXXXX1111 aaaaa
1aaaad

#131
0aaaad

#132
1aaaad

#133
0aaaad

#134
1aaaad

#135
0aaaad

#136
1aaaad

#137
0aaaad

#138
1aaaad

#139
0aaaad

#140
b1111XXXX aaaaa
1aaaad

#141
0aaaad

#142
1aaaad

#143
0aaaad

#144
1aaaad

#145
0aaaad

#146
1aaaad

#147
0aaaad

#148
1aaaad

#149
0aaaad

#150
bXXXXZZZZ aaaaa
1aaaad

#151
0aaaad

#152
1aaaad

#153
0aaaad

#154
1aaaad

#155
0aaaad

#156
1aaaad

#157
0aaaad

#158
1aaaad

#159
0aaaad

#160
bZZZZXXXX aaaaa
1aaaad

#161
0aaaad

#162
1aaaad

#163
0aaaad

#164
1aaaad

#165
0aaaad

#166
1aaaad

#167
0aaaad

#168
1aaaad

#169
0aaaad

#170
b0 aaaaa
1aaaab
1aaaac
1aaaad

#171
0aaaad

#172
1aaaad

#173
0aaaad

#174
1aaaad

#175
0aaaad

#176
1aaaad

#177
0aaaad

#178
1aaaad

#179
0aaaad

#180
b1 aaaaa
1aaaad

#181
0aaaad

#182
1aaaad

#183
0aaaad

#184
1aaaad

#185
0aaaad

#186
1aaaad

#187
0aaaad

#188
1aaaad

#189
0aaaad

#190
b0X aaaaa
1aaaad

#191
0aaaad

#192
1aaaad

#193
0aaaad

#194
1aaaad

#195
0aaaad

#196
1aaaad

#197
0aaaad

#198
1aaaad

#199
0aaaad

#200
b0Z aaaaa
1aaaad

#201
0aaaad

#202
1aaaad

#203
0aaaad

#204
1aaaad

#205
0aaaad

#206
1aaaad

#207
0aaaad

#208
1aaaad

#209
0aaaad

#210
b11110000 aaaaa
0aaaac
1aaaad

#211
0aaaad

#212
1aaaad

#213
0aaaad

#214
1aaaad

#215
0aaaad

#216
1aaaad

#217
0aaaad

#218
1aaaad

#219
0aaaad

#220
b11110001 aaaaa
1aaaad

#221
0aaaad

#222
1aaaad

#223
0aaaad

#224
1aaaad

#225
0aaaad

#226
1aaaad

#227
0aaaad

#228
1aaaad

#229
0aaaad

#230
b1111000X aaaaa
1aaaac
1aaaad

#231
0aaaad

#232
1aaaad

#233
0aaaad

#234
1aaaad

#235
0aaaad

#236
1aaaad

#237
0aaaad

#238
1aaaad

#239
0aaaad

#240
b1111000Z aaaaa
1aaaad

#241
0aaaad

#242
1aaaad

#243
0aaaad

#244
1aaaad

#245
0aaaad

#246
1aaaad

#247
0aaaad

#248
1aaaad

#249
0aaaad

#250
b11111111 aaaaa
1aaaad

#251
0aaaad

#252
1aaaad

#253
0aaaad

#254
1aaaad

#255
0aaaad

#256
1aaaad

#257
0aaaad

#258
1aaaad

#259
0aaaad

#260
bXXXXXXXX aaaaa
1aaaad

#261
0aaaad

#262
1aaaad

#263
0aaaad

#264
1aaaad

#265
0aaaad

#266
1aaaad

#267
0aaaad

#268
1aaaad

#269
0aaaad

#270
bZZZZZZZZ aaaaa
1aaaad

#271
0aaaad

#272
1aaaad

#273
0aaaad

#274
1aaaad

#275
0aaaad

#276
1aaaad

#277
0aaaad

#278
1aaaad

#279
0aaaad

#280
bXXXX0000 aaaaa
1aaaad

#281
0aaaad

#282
1aaaad

#283
0aaaad

#284
1aaaad

#285
0aaaad

#286
1aaaad

#287
0aaaad

#288
1aaaad

#289
0aaaad

#290
b0XXXX aaaaa
1aaaad

#291
0aaaad

#292
1aaaad

#293
0aaaad

#294
1aaaad

#295
0aaaad

#296
1aaaad

#297
0aaaad

#298
1aaaad

#299
0aaaad

#300
bXXXX1111 aaaaa
1aaaad

#301
0aaaad

#302
1aaaad

#303
0aaaad

#304
1aaaad

#305
0aaaad

#306
1aaaad

#307
0aaaad

#308
1aaaad

#309
0aaaad

#310
b1111XXXX aaaaa
1aaaad

#311
0aaaad

#312
1aaaad

#313
0aaaad

#314
1aaaad

#315
0aaaad

#316
1aaaad

#317
0aaaad

#318
1aaaad

#319
0aaaad

#320
bXXXXZZZZ aaaaa
1aaaad

#321
0aaaad

#322
1aaaad

#323
0aaaad

#324
1aaaad

#325
0aaaad

#326
1aaaad

#327
0aaaad

#328
1aaaad

#329
0aaaad

#330
bZZZZXXXX aaaaa
1aaaad

#331
0aaaad

#332
1aaaad

#333
0aaaad

#334
1aaaad

#335
0aaaad

#336
1aaaad

#337
0aaaad

#338
1aaaad

#339
0aaaad

#340
b0 aaaaa
0aaaab
0aaaac
1aaaad
1aaaae

#341
0aaaad

#342
1aaaad

#343
0aaaad

#344
1aaaad

#345
0aaaad

#346
1aaaad

#347
0aaaad

#348
1aaaad

#349
0aaaad

#350
b1 aaaaa
1aaaad

#351
0aaaad

#352
1aaaad

#353
0aaaad

#354
1aaaad

#355
0aaaad

#356
1aaaad

#357
0aaaad

#358
1aaaad

#359
0aaaad

#360
b0X aaaaa
1aaaad

#361
0aaaad

#362
1aaaad

#363
0aaaad

#364
1aaaad

#365
0aaaad

#366
1aaaad

#367
0aaaad

#368
1aaaad

#369
0aaaad

#370
b0Z aaaaa
1aaaad

#371
0aaaad

#372
1aaaad

#373
0aaaad

#374
1aaaad

#375
0aaaad

#376
1aaaad

#377
0aaaad

#378
1aaaad

#379
0aaaad

#380
b11110000 aaaaa
1aaaad

#381
0aaaad

#382
1aaaad

#383
0aaaad

#384
1aaaad

#385
0aaaad

#386
1aaaad

#387
0aaaad

#388
1aaaad

#389
0aaaad

#390
b11110001 aaaaa
1aaaad

#391
0aaaad

#392
1aaaad

#393
0aaaad

#394
1aaaad

#395
0aaaad

#396
1aaaad

#397
0aaaad

#398
1aaaad

#399
0aaaad

#400
b1111000X aaaaa
1aaaad

#401
0aaaad

#402
1aaaad

#403
0aaaad

#404
1aaaad

#405
0aaaad

#406
1aaaad

#407
0aaaad

#408
1aaaad

#409
0aaaad

#410
b1111000Z aaaaa
1aaaad

#411
0aaaad

#412
1aaaad

#413
0aaaad

#414
1aaaad

#415
0aaaad

#416
1aaaad

#417
0aaaad

#418
1aaaad

#419
0aaaad

#420
b11111111 aaaaa
1aaaad

#421
0aaaad

#422
1aaaad

#423
0aaaad

#424
1aaaad

#425
0aaaad

#426
1aaaad

#427
0aaaad

#428
1aaaad

#429
0aaaad

#430
bXXXXXXXX aaaaa
1aaaad

#431
0aaaad

#432
1aaaad

#433
0aaaad

#434
1aaaad

#435
0aaaad

#436
1aaaad

#437
0aaaad

#438
1aaaad

#439
0aaaad

#440
bZZZZZZZZ aaaaa
1aaaad

#441
0aaaad

#442
1aaaad

#443
0aaaad

#444
1aaaad

#445
0aaaad

#446
1aaaad

#447
0aaaad

#448
1aaaad

#449
0aaaad

#450
bXXXX0000 aaaaa
1aaaad

#451
0aaaad

#452
1aaaad

#453
0aaaad

#454
1aaaad

#455
0aaaad

#456
1aaaad

#457
0aaaad

#458
1aaaad

#459
0aaaad

#460
b0XXXX aaaaa
1aaaad

#461
0aaaad

#462
1aaaad

#463
0aaaad

#464
1aaaad

#465
0aaaad

#466
1aaaad

#467
0aaaad

#468
1aaaad

#469
0aaaad

#470
bXXXX1111 aaaaa
1aaaad

#471
0aaaad

#472
1aaaad

#473
0aaaad

#474
1aaaad

#475
0aaaad

#476
1aaaad

#477
0aaaad

#478
1aaaad

#479
0aaaad

#480
b1111XXXX aaaaa
1aaaad

#481
0aaaad

#482
1aaaad

#483
0aaaad

#484
1aaaad

#485
0aaaad

#486
1aaaad

#487
0aaaad

#488
1aaaad

#489
0aaaad

#490
bXXXXZZZZ aaaaa
1aaaad

#491
0aaaad

#492
1aaaad

#493
0aaaad

#494
1aaaad

#495
0aaaad

#496
1aaaad

#497
0aaaad

#498
1aaaad

#499
0aaaad

#500
bZZZZXXXX aaaaa
1aaaad

