i2c_to_wb_fsm/fsm.vcd
$date
     Jun 25, 2018       19:55:28
$end

$version
 SystemC 2.3.2-Accellera --- Jun 11 2018 14:13:11
$end

$timescale
     1 ns
$end

$scope module SystemC $end
$var wire    1  aaaah  i2c_data_rise       $end
$var wire    1  aaaai  i2c_data_fall       $end
$var wire    1  aaaaj  i2c_clk       $end
$var wire    1  aaaak  wb_rst_i       $end
$var wire    1  aaaal  wb_clk_i       $end
$var wire    8  aaaam  state_out [7:0]  $end
$var wire    1  aaaan  i2c_clk_fall       $end
$var wire    1  aaaao  i2c_clk_rise       $end
$var wire    1  aaaap  i2c_ack_done       $end
$var wire    1  aaaaq  i2c_ack_out       $end
$var wire    1  aaaar  i2c_data       $end
$var wire    1  aaaas  i2c_r_w_bit       $end
$var wire    1  aaaat  tip_addr_ack       $end
$var wire    1  aaaau  tip_addr_byte       $end
$var wire    1  aaaav  tip_read_byte       $end
$var wire    1  aaaaw  tip_write_byte       $end
$var wire    1  aaaax  tip_wr_ack       $end
$var wire    1  aaaay  tip_rd_ack       $end
$var wire    1  aaaaz  i2c_error       $end
$scope module I2C $end
$var wire    1  aaaaa  start_detected       $end
$var wire    1  aaaab  stop_detected       $end
$var wire    1  aaaac  tip_ack       $end
$var wire    1  aaaad  xmt_byte_done       $end
$var wire   32  aaaae  state [31:0]  $end
$var wire   32  aaaaf  next_state [31:0]  $end
$var wire    4  aaaag  bit_count [3:0]  $end
$upscope $end
$upscope $end
$enddefinitions  $end

$comment
All initial values are dumped below at time 0 sec = 0 timescale units.
$end

$dumpvars
0aaaaa
0aaaab
0aaaac
0aaaad
b0 aaaae
b0 aaaaf
b0 aaaag
0aaaah
0aaaai
1aaaaj
1aaaak
1aaaal
b1 aaaam
0aaaan
0aaaao
0aaaap
0aaaaq
0aaaar
0aaaas
0aaaat
0aaaau
0aaaav
0aaaaw
0aaaax
0aaaay
0aaaaz
$end

#1
0aaaal

#2
b100 aaaag
1aaaal

#3
0aaaal

#4
1aaaal

#5
0aaaal

#6
1aaaal

#7
0aaaal

#8
1aaaal

#9
0aaaal

#10
1aaaaa
1aaaai
0aaaak
1aaaal

#11
0aaaal

#12
1aaaal
b10 aaaam
1aaaau
1aaaaw

#13
0aaaal

#14
1aaaal

#15
0aaaal

#16
1aaaal

#17
0aaaal

#18
1aaaal

#19
0aaaal

#20
1aaaal

#21
0aaaal

#22
1aaaal

#23
0aaaal

#24
1aaaal

#25
0aaaal

#26
1aaaal

#27
0aaaal

#28
1aaaal

#29
0aaaal

#30
1aaaal

#31
0aaaal

#32
1aaaal

#33
0aaaal

#34
1aaaal

#35
0aaaal

#36
1aaaal

#37
0aaaal

#38
1aaaal

#39
0aaaal

#40
0aaaaa
0aaaai
1aaaal
1aaaao

#41
0aaaal

#42
1aaaal

#43
0aaaal

#44
1aaaal

#45
0aaaal

#46
1aaaal

#47
0aaaal

#48
1aaaal

#49
0aaaal

#50
1aaaal

#51
0aaaal

#52
1aaaal

#53
0aaaal

#54
1aaaal

#55
0aaaal

#56
1aaaal

#57
0aaaal

#58
1aaaal

#59
0aaaal

#60
1aaaal

#61
0aaaal

#62
1aaaal

#63
0aaaal

#64
1aaaal

#65
0aaaal

#66
1aaaal

#67
0aaaal

#68
1aaaal

#69
0aaaal

#70
b101 aaaag
1aaaal
1aaaan

#71
0aaaal

#72
b110 aaaag
1aaaal

#73
0aaaal

#74
1aaaad
b111 aaaag
1aaaal

#75
0aaaal

#76
0aaaad
b1000 aaaag
1aaaal
b100 aaaam
1aaaat
0aaaau
0aaaaw
1aaaax

#77
0aaaal

#78
b1001 aaaag
1aaaal

#79
0aaaal

#80
b1010 aaaag
1aaaal

#81
0aaaal

#82
b1011 aaaag
1aaaal

#83
0aaaal

#84
b1100 aaaag
1aaaal

#85
0aaaal

#86
b1101 aaaag
1aaaal

#87
0aaaal

#88
b1110 aaaag
1aaaal

#89
0aaaal

#90
b100 aaaag
1aaaal
1aaaap

#91
0aaaal

#92
1aaaal
b1000 aaaam
0aaaat
1aaaaw
0aaaax

#93
0aaaal

#94
1aaaal

#95
0aaaal

#96
1aaaal

#97
0aaaal

#98
1aaaal

#99
0aaaal

#100
1aaaal

#101
0aaaal

#102
1aaaal

#103
0aaaal

#104
1aaaal

#105
0aaaal

#106
1aaaal

#107
0aaaal

#108
1aaaal

#109
0aaaal

#110
b101 aaaag
1aaaal
0aaaap

#111
0aaaal

#112
b110 aaaag
1aaaal

#113
0aaaal

#114
1aaaad
b111 aaaag
1aaaal

#115
0aaaal

#116
0aaaad
b1000 aaaag
1aaaal
b10000 aaaam
0aaaaw
1aaaax

#117
0aaaal

#118
b1001 aaaag
1aaaal

#119
0aaaal

#120
b1010 aaaag
1aaaal

#121
0aaaal

#122
b1011 aaaag
1aaaal

#123
0aaaal

#124
b1100 aaaag
1aaaal

#125
0aaaal

#126
b1101 aaaag
1aaaal

#127
0aaaal

#128
b1110 aaaag
1aaaal

#129
0aaaal

#130
b100 aaaag
1aaaal
1aaaap

#131
0aaaal

#132
1aaaal
b1000 aaaam
1aaaaw
0aaaax

#133
0aaaal

#134
1aaaal

#135
0aaaal

#136
1aaaal

#137
0aaaal

#138
1aaaal

#139
0aaaal

#140
1aaaal

#141
0aaaal

#142
1aaaal

#143
0aaaal

#144
1aaaal

#145
0aaaal

#146
1aaaal

#147
0aaaal

#148
1aaaal

#149
0aaaal

#150
1aaaab
1aaaah
1aaaal
0aaaao
0aaaap

#151
0aaaal

#152
b101 aaaag
1aaaal
b1 aaaam
0aaaaw

#153
0aaaal

#154
b110 aaaag
1aaaal

#155
0aaaal

#156
b111 aaaag
1aaaal

#157
0aaaal

#158
b1000 aaaag
1aaaal

#159
0aaaal

#160
b1001 aaaag
1aaaal

#161
0aaaal

#162
b1010 aaaag
1aaaal

#163
0aaaal

#164
b1011 aaaag
1aaaal

#165
0aaaal

#166
b1100 aaaag
1aaaal

#167
0aaaal

#168
b1101 aaaag
1aaaal

