i2c_to_wb_fsm/fsm.vcd
$date
     Jun 28, 2018       16:19:57
$end

$version
 SystemC 2.3.2-Accellera --- Jun 11 2018 14:13:11
$end

$timescale
     1 ns
$end

$scope module SystemC $end
$scope module I2C $end
$var wire    1  aaaaa  start_detected       $end
$var wire    1  aaaab  stop_detected       $end
$var wire    1  aaaac  tip_ack       $end
$var wire    1  aaaad  xmt_byte_done       $end
$var wire   32  aaaae  state [31:0]  $end
$var wire   32  aaaaf  next_state [31:0]  $end
$var wire    4  aaaag  bit_count [3:0]  $end
$var wire    8  aaaah  state_out [7:0]  $end
$var wire    1  aaaai  i2c_error       $end
$var wire    1  aaaaj  tip_addr_ack       $end
$var wire    1  aaaak  tip_rd_ack       $end
$var wire    1  aaaal  tip_wr_ack       $end
$var wire    1  aaaam  tip_write_byte       $end
$var wire    1  aaaan  tip_read_byte       $end
$var wire    1  aaaao  tip_addr_byte       $end
$var wire    1  aaaap  i2c_ack_done       $end
$var wire    1  aaaaq  wb_rst_i       $end
$var wire    1  aaaar  wb_clk_i       $end
$var wire    1  aaaas  i2c_ack_out       $end
$var wire    1  aaaat  i2c_r_w_bit       $end
$var wire    1  aaaau  i2c_clk_fall       $end
$var wire    1  aaaav  i2c_clk_rise       $end
$var wire    1  aaaaw  i2c_clk       $end
$var wire    1  aaaax  i2c_data_fall       $end
$var wire    1  aaaay  i2c_data_rise       $end
$var wire    1  aaaaz  i2c_data       $end
$upscope $end
$upscope $end
$enddefinitions  $end

$comment
All initial values are dumped below at time 0 sec = 0 timescale units.
$end

$dumpvars
0aaaaa
0aaaab
0aaaac
0aaaad
b0 aaaae
b0 aaaaf
b0 aaaag
b1 aaaah
0aaaai
0aaaaj
0aaaak
0aaaal
0aaaam
0aaaan
0aaaao
0aaaap
1aaaaq
1aaaar
0aaaas
0aaaat
0aaaau
0aaaav
0aaaaw
0aaaax
0aaaay
0aaaaz
$end

#1
0aaaar

#2
b100 aaaag
1aaaar

#3
0aaaar

#4
1aaaar

#5
0aaaar

#6
1aaaar

#7
0aaaar

#8
1aaaar

#9
0aaaar

#10
1aaaaa
0aaaaq
1aaaar
1aaaaw
1aaaax

#11
0aaaar

#12
b10 aaaah
1aaaam
1aaaao
1aaaar

#13
0aaaar

#14
1aaaar

#15
0aaaar

#16
1aaaar

#17
0aaaar

#18
1aaaar

#19
0aaaar

#20
1aaaar

#21
0aaaar

#22
1aaaar

#23
0aaaar

#24
1aaaar

#25
0aaaar

#26
1aaaar

#27
0aaaar

#28
1aaaar

#29
0aaaar

#30
0aaaaa
1aaaar
1aaaav
0aaaax

#31
0aaaar

#32
1aaaar

#33
0aaaar

#34
1aaaar

#35
0aaaar

#36
1aaaar

#37
0aaaar

#38
1aaaar

#39
0aaaar

#40
1aaaar

#41
0aaaar

#42
1aaaar

#43
0aaaar

#44
1aaaar

#45
0aaaar

#46
1aaaar

#47
0aaaar

#48
1aaaar

#49
0aaaar

#50
b101 aaaag
1aaaar
1aaaau

#51
0aaaar

#52
b110 aaaag
1aaaar

#53
0aaaar

#54
1aaaad
b111 aaaag
1aaaar

#55
0aaaar

#56
0aaaad
b1000 aaaag
b100 aaaah
1aaaaj
1aaaal
0aaaam
0aaaao
1aaaar

#57
0aaaar

#58
b1001 aaaag
1aaaar

#59
0aaaar

#60
b1010 aaaag
1aaaar

#61
0aaaar

#62
b1011 aaaag
1aaaar

#63
0aaaar

#64
b1100 aaaag
1aaaar

#65
0aaaar

#66
b1101 aaaag
1aaaar

#67
0aaaar

#68
b1110 aaaag
1aaaar

#69
0aaaar

#70
b1111 aaaag
1aaaar

#71
0aaaar

#72
b0 aaaag
1aaaar

#73
0aaaar

#74
b1 aaaag
1aaaar

#75
0aaaar

#76
b10 aaaag
1aaaar

#77
0aaaar

#78
b11 aaaag
1aaaar

#79
0aaaar

#80
b100 aaaag
1aaaar

#81
0aaaar

#82
b101 aaaag
1aaaar

#83
0aaaar

#84
b110 aaaag
1aaaar

#85
0aaaar

#86
1aaaad
b111 aaaag
1aaaar

#87
0aaaar

#88
0aaaad
b1000 aaaag
1aaaar

#89
0aaaar

#90
b1001 aaaag
1aaaar

#91
0aaaar

#92
b1010 aaaag
1aaaar

#93
0aaaar

#94
b1011 aaaag
1aaaar

#95
0aaaar

#96
b1100 aaaag
1aaaar

#97
0aaaar

#98
b1101 aaaag
1aaaar

#99
0aaaar

#100
b1110 aaaag
1aaaar

#101
0aaaar

#102
b1111 aaaag
1aaaar

#103
0aaaar

#104
b0 aaaag
1aaaar

#105
0aaaar

#106
b1 aaaag
1aaaar

#107
0aaaar

#108
b10 aaaag
1aaaar

#109
0aaaar

#110
b11 aaaag
1aaaar

#111
0aaaar

#112
b100 aaaag
1aaaar

#113
0aaaar

#114
b101 aaaag
1aaaar

#115
0aaaar

#116
b110 aaaag
1aaaar

#117
0aaaar

#118
1aaaad
b111 aaaag
1aaaar

#119
0aaaar

#120
0aaaad
b1000 aaaag
1aaaar

#121
0aaaar

#122
b1001 aaaag
1aaaar

#123
0aaaar

#124
b1010 aaaag
1aaaar

#125
0aaaar

#126
b1011 aaaag
1aaaar

#127
0aaaar

#128
b1100 aaaag
1aaaar

#129
0aaaar

#130
b100 aaaag
1aaaap
1aaaar

#131
0aaaar

#132
b1000 aaaah
0aaaaj
0aaaal
1aaaam
1aaaar

#133
0aaaar

#134
1aaaar

#135
0aaaar

#136
1aaaar

#137
0aaaar

#138
1aaaar

#139
0aaaar

#140
1aaaar

#141
0aaaar

#142
1aaaar

#143
0aaaar

#144
1aaaar

#145
0aaaar

#146
1aaaar

#147
0aaaar

#148
1aaaar

#149
0aaaar

#150
1aaaab
0aaaap
1aaaar
0aaaav
1aaaay

#151
0aaaar

#152
b101 aaaag
b1 aaaah
0aaaam
1aaaar

#153
0aaaar

#154
b110 aaaag
1aaaar

#155
0aaaar

#156
b111 aaaag
1aaaar

#157
0aaaar

#158
b1000 aaaag
1aaaar

#159
0aaaar

#160
b1001 aaaag
1aaaar

#161
0aaaar

#162
b1010 aaaag
1aaaar

#163
0aaaar

#164
b1011 aaaag
1aaaar

#165
0aaaar

#166
b1100 aaaag
1aaaar

#167
0aaaar

#168
b1101 aaaag
1aaaar

